sku;store_view_code;attribute_set_code;product_type;categories;product_websites;name;description;short_description;weight;product_online;tax_class_name;visibility;price;special_price;special_price_from_date;special_price_to_date;url_key;meta_title;meta_keywords;meta_description;base_image;base_image_label;small_image;small_image_label;thumbnail_image;thumbnail_image_label;created_at;updated_at;new_from_date;new_to_date;display_product_options_in;map_price;msrp_price;map_enabled;gift_message_available;custom_design;custom_design_from;custom_design_to;custom_layout_update;page_layout;product_options_container;msrp_display_actual_price_type;country_of_manufacture;additional_attributes;qty;out_of_stock_qty;use_config_min_qty;is_qty_decimal;allow_backorders;use_config_backorders;min_cart_qty;use_config_min_sale_qty;max_cart_qty;use_config_max_sale_qty;is_in_stock;notify_on_stock_below;use_config_notify_stock_qty;manage_stock;use_config_manage_stock;use_config_qty_increments;qty_increments;use_config_enable_qty_inc;enable_qty_increments;is_decimal_divided;website_id;deferred_stock_update;use_config_deferred_stock_update;related_skus;crosssell_skus;upsell_skus;additional_images;additional_image_labels;hide_from_product_page;custom_options;bundle_price_type;bundle_sku_type;bundle_price_view;bundle_weight_type;bundle_values;associated_skus
ZS16O0201002390;zilian;Default;simple;Zilian/Sapatos;base;Sapatos em camurça rosa seco;"<table border=\"0\" cellspacing=\"0\" cellpadding=\"0\">\r\n<tbody>\r\n<tr height=\"19\">\r\n<td class=\"xl67\" height=\"19\" width=\"242\">Material exterior - Camurça</td>\r\n</tr>\r\n<tr height=\"19\">\r\n<td class=\"xl67\" height=\"19\">Material interior - Pele</td>\r\n</tr>\r\n<tr height=\"19\">\r\n<td class=\"xl67\" height=\"19\">Tamanho salto - 9 cm<br><br></td>\r\n</tr>\r\n</tbody>\r\n</table>";;1.0;1;Taxable Goods;Catalog, Search;89.90;;;;ZS16O0201002390;;;;ZS16O0201002390.jpg;;ZS16O0201002390.jpg;;ZS16O0201002390.jpg;;;;;;Block after Info Column;;;;;;;;;;;Use config;;manufacturer=Zilian;100;0;1;0;0;1;1;1;1000;1;1;1;1;1;1;1;1;0;0;0;1;0;1;;;;;;;;;;;;;
ZS17O0104002771;zilian;Default;simple;Zilian/Sapatos;base;Sapatos em camurça rosa seco;"<table border=\"0\" cellspacing=\"0\" cellpadding=\"0\">\r\n<tbody>\r\n<tr height=\"19\">\r\n<td class=\"xl67\" height=\"19\" width=\"242\">Material exterior - Camurça</td>\r\n</tr>\r\n<tr height=\"19\">\r\n<td class=\"xl67\" height=\"19\">Material interior - Pele</td>\r\n</tr>\r\n<tr height=\"19\">\r\n<td class=\"xl67\" height=\"19\">\r\n<p>Tamanho salto - 12,5 cm<br><br></p>\r\n<p>Compensação- 3 cm</p>\r\n<div></div>\r\n</td>\r\n</tr>\r\n</tbody>\r\n</table>";;1.0;1;Taxable Goods;Catalog, Search;99.90;;;;ZS17O0104002771;;;;ZS17O0104002771.jpg;;ZS17O0104002771.jpg;;ZS17O0104002771.jpg;;;;;;Block after Info Column;;;;;;;;;;;Use config;;manufacturer=Zilian;100;0;1;0;0;1;1;1;1000;1;1;1;1;1;1;1;1;0;0;0;1;0;1;;;;;;;;;;;;;
ZS17P0104002762;zilian;Default;simple;Zilian/Sandálias;base;Sandálias em veludo preto;"<table border=\"0\" cellspacing=\"0\" cellpadding=\"0\">\r\n<tbody>\r\n<tr height=\"19\">\r\n<td class=\"xl67\" height=\"19\" width=\"242\">Material exterior - Veludo</td>\r\n</tr>\r\n<tr height=\"19\">\r\n<td class=\"xl67\" height=\"19\">Material interior - Pele</td>\r\n</tr>\r\n<tr height=\"19\">\r\n<td class=\"xl67\" height=\"19\">Tamanho salto - 12,5 cm<br><br></td>\r\n</tr>\r\n<tr height=\"19\">\r\n<td class=\"xl67\" height=\"19\">Compensação - 4 cm<br><br></td>\r\n</tr>\r\n</tbody>\r\n</table>";;1.0;1;Taxable Goods;Catalog, Search;99.90;;;;ZS17P0104002762;;;;ZS17P0104002762.jpg;;ZS17P0104002762.jpg;;ZS17P0104002762.jpg;;;;;;Block after Info Column;;;;;;;;;;;Use config;;manufacturer=Zilian;100;0;1;0;0;1;1;1;1000;1;1;1;1;1;1;1;1;0;0;0;1;0;1;;;;;;;;;;;;;
ZS17P0104002644;zilian;Default;simple;Zilian/Sandálias;base;Sandálias em nobuck preto;"<table border=\"0\" cellspacing=\"0\" cellpadding=\"0\">\r\n<tbody>\r\n<tr height=\"19\">\r\n<td class=\"xl67\" height=\"19\" width=\"242\">Material exterior - Nobuck</td>\r\n</tr>\r\n<tr height=\"19\">\r\n<td class=\"xl67\" height=\"19\">Material interior - Poliuretano</td>\r\n</tr>\r\n<tr height=\"19\">\r\n<td class=\"xl67\" height=\"19\">Tamanho salto - 8 cm<br><br></td>\r\n</tr>\r\n</tbody>\r\n</table>";;1.0;1;Taxable Goods;Catalog, Search;79.90;;;;ZS17P0104002644;;;;ZS17P0104002644.jpg;;ZS17P0104002644.jpg;;ZS17P0104002644.jpg;;;;;;Block after Info Column;;;;;;;;;;;Use config;;manufacturer=Zilian;100;0;1;0;0;1;1;1;1000;1;1;1;1;1;1;1;1;0;0;0;1;0;1;;;;;;;;;;;;;
ZS17P0404002751;zilian;Default;simple;Zilian/nubuck;base;nubuck  azul velho s/mat s/cor;"<table border=\"0\" cellspacing=\"0\" cellpadding=\"0\">\r\n<tbody>\r\n<tr height=\"19\">\r\n<td class=\"xl67\" height=\"19\" width=\"242\">Material exterior - Nobuck</td>\r\n</tr>\r\n<tr height=\"19\">\r\n<td class=\"xl67\" height=\"19\">Material interior - Poliuretano</td>\r\n</tr>\r\n<tr height=\"19\">\r\n<td class=\"xl67\" height=\"19\"></td>\r\n</tr>\r\n</tbody>\r\n</table>";;1.0;1;Taxable Goods;Catalog, Search;69.90;;;;ZS17P0404002751;;;;ZS17P0404002751.jpg;;ZS17P0404002751.jpg;;ZS17P0404002751.jpg;;;;;;Block after Info Column;;;;;;;;;;;Use config;;manufacturer=Zilian;100;0;1;0;0;1;1;1;1000;1;1;1;1;1;1;1;1;0;0;0;1;0;1;;;;;;;;;;;;;
ZS17P0413002666;zilian;Default;simple;Zilian/Sabrinas;base;Sabrinas em cobra multicor;"<table border=\"0\" cellspacing=\"0\" cellpadding=\"0\">\r\n<tbody>\r\n<tr height=\"19\">\r\n<td class=\"xl67\" height=\"19\" width=\"242\">Material exterior - Pele bovina gravada</td>\r\n</tr>\r\n<tr height=\"19\">\r\n<td class=\"xl67\" height=\"19\">Material interior - Poliuretano</td>\r\n</tr>\r\n<tr height=\"19\">\r\n<td class=\"xl67\" height=\"19\"><br><br></td>\r\n</tr>\r\n</tbody>\r\n</table>";;1.0;1;Taxable Goods;Catalog, Search;69.90;;;;ZS17P0413002666;;;;ZS17P0413002666.jpg;;ZS17P0413002666.jpg;;ZS17P0413002666.jpg;;;;;;Block after Info Column;;;;;;;;;;;Use config;;manufacturer=Zilian;100;0;1;0;0;1;1;1;1000;1;1;1;1;1;1;1;1;0;0;0;1;0;1;;;;;;;;;;;;;
ZS17P0104002661;zilian;Default;simple;Zilian/Sandálias;base;Sandálias em cobra multicor;"<table border=\"0\" cellspacing=\"0\" cellpadding=\"0\">\r\n<tbody>\r\n<tr height=\"19\">\r\n<td class=\"xl67\" height=\"19\" width=\"242\">Material exterior - Pele bovina gravada</td>\r\n</tr>\r\n<tr height=\"19\">\r\n<td class=\"xl67\" height=\"19\">Material interior - Poliuretano</td>\r\n</tr>\r\n<tr height=\"19\">\r\n<td class=\"xl67\" height=\"19\">Tamanho salto - 12 cm</td>\r\n</tr>\r\n<tr height=\"19\">\r\n<td class=\"xl67\" height=\"19\">Compensação - 2,5 cm<br><br></td>\r\n</tr>\r\n</tbody>\r\n</table>";;1.0;1;Taxable Goods;Catalog, Search;79.90;;;;ZS17P0104002661;;;;ZS17P0104002661.jpg;;ZS17P0104002661.jpg;;ZS17P0104002661.jpg;;;;;;Block after Info Column;;;;;;;;;;;Use config;;manufacturer=Zilian;100;0;1;0;0;1;1;1;1000;1;1;1;1;1;1;1;1;0;0;0;1;0;1;;;;;;;;;;;;;
ZS17P0108002763;zilian;Default;simple;Zilian/Botins;base;Botins em pele camel;"<table border=\"0\" cellspacing=\"0\" cellpadding=\"0\">\r\n<tbody>\r\n<tr height=\"19\">\r\n<td class=\"xl67\" height=\"19\" width=\"242\">Material exterior - Pele</td>\r\n</tr>\r\n<tr height=\"19\">\r\n<td class=\"xl67\" height=\"19\">Material interior - Pele</td>\r\n</tr>\r\n<tr height=\"19\">\r\n<td class=\"xl67\" height=\"19\">Tamanho salto - 10 cm<br><br></td>\r\n</tr>\r\n<tr height=\"19\">\r\n<td class=\"xl67\" height=\"19\"><br><br></td>\r\n</tr>\r\n</tbody>\r\n</table>";;1.0;1;Taxable Goods;Catalog, Search;109.90;;;;ZS17P0108002763;;;;ZS17P0108002763.jpg;;ZS17P0108002763.jpg;;ZS17P0108002763.jpg;;;;;;Block after Info Column;;;;;;;;;;;Use config;;manufacturer=Zilian;100;0;1;0;0;1;1;1;1000;1;1;1;1;1;1;1;1;0;0;0;1;0;1;;;;;;;;;;;;;
ZS17P0101002587;zilian;Default;simple;Zilian/Mules;base;Mules em croute camel;"<table border=\"0\" cellspacing=\"0\" cellpadding=\"0\">\r\n<tbody>\r\n<tr height=\"19\">\r\n<td class=\"xl67\" height=\"19\" width=\"242\">Material exterior - Croute</td>\r\n</tr>\r\n<tr height=\"19\">\r\n<td class=\"xl67\" height=\"19\">Material interior - Pele</td>\r\n</tr>\r\n<tr height=\"19\">\r\n<td class=\"xl67\" height=\"19\">Tamanho salto - 10 cm<br><br></td>\r\n</tr>\r\n</tbody>\r\n</table>";;1.0;1;Taxable Goods;Catalog, Search;99.90;;;;ZS17P0101002587;;;;ZS17P0101002587.jpg;;ZS17P0101002587.jpg;;ZS17P0101002587.jpg;;;;;;Block after Info Column;;;;;;;;;;;Use config;;manufacturer=Zilian;100;0;1;0;0;1;1;1;1000;1;1;1;1;1;1;1;1;0;0;0;1;0;1;;;;;;;;;;;;;
ZS17P0408002579;zilian;Default;simple;Zilian/Botins;base;Botins em croute camel;"<table border=\"0\" cellspacing=\"0\" cellpadding=\"0\">\r\n<tbody>\r\n<tr height=\"19\">\r\n<td class=\"xl67\" height=\"19\" width=\"242\">Material exterior - Croute</td>\r\n</tr>\r\n<tr height=\"19\">\r\n<td class=\"xl67\" height=\"19\">Material interior - Pele</td>\r\n</tr>\r\n<tr height=\"19\">\r\n<td class=\"xl67\" height=\"19\">Tamanho salto - 3 cm<br><br></td>\r\n</tr>\r\n</tbody>\r\n</table>";;1.0;1;Taxable Goods;Catalog, Search;109.90;;;;ZS17P0408002579;;;;ZS17P0408002579.jpg;;ZS17P0408002579.jpg;;ZS17P0408002579.jpg;;;;;;Block after Info Column;;;;;;;;;;;Use config;;manufacturer=Zilian;100;0;1;0;0;1;1;1;1000;1;1;1;1;1;1;1;1;0;0;0;1;0;1;;;;;;;;;;;;;
ZS17P0408002580;zilian;Default;simple;Zilian/Botins;base;Botins em croute camel;"<table border=\"0\" cellspacing=\"0\" cellpadding=\"0\">\r\n<tbody>\r\n<tr height=\"19\">\r\n<td class=\"xl67\" height=\"19\" width=\"242\">Material exterior - Camurça</td>\r\n</tr>\r\n<tr height=\"19\">\r\n<td class=\"xl67\" height=\"19\">Material interior - Pele</td>\r\n</tr>\r\n<tr height=\"19\">\r\n<td class=\"xl67\" height=\"19\">Tamanho salto - 4,5 cm<br><br></td>\r\n</tr>\r\n</tbody>\r\n</table>";;1.0;1;Taxable Goods;Catalog, Search;99.90;;;;ZS17P0408002580;;;;ZS17P0408002580.jpg;;ZS17P0408002580.jpg;;ZS17P0408002580.jpg;;;;;;Block after Info Column;;;;;;;;;;;Use config;;manufacturer=Zilian;100;0;1;0;0;1;1;1;1000;1;1;1;1;1;1;1;1;0;0;0;1;0;1;;;;;;;;;;;;;
ZS17P0408002581;zilian;Default;simple;Zilian/Botins;base;Botins em cobra natural e pele camel;"<table border=\"0\" cellspacing=\"0\" cellpadding=\"0\">\r\n<tbody>\r\n<tr height=\"19\">\r\n<td class=\"xl67\" height=\"19\" width=\"242\">Material exterior - Pele bovina</td>\r\n</tr>\r\n<tr height=\"19\">\r\n<td class=\"xl67\" height=\"19\">Material interior - Pele</td>\r\n</tr>\r\n<tr height=\"19\">\r\n<td class=\"xl67\" height=\"19\">Tamanho salto - 4,5 cm<br><br></td>\r\n</tr>\r\n</tbody>\r\n</table>";;1.0;1;Taxable Goods;Catalog, Search;119.90;;;;ZS17P0408002581;;;;ZS17P0408002581.jpg;;ZS17P0408002581.jpg;;ZS17P0408002581.jpg;;;;;;Block after Info Column;;;;;;;;;;;Use config;;manufacturer=Zilian;100;0;1;0;0;1;1;1;1000;1;1;1;1;1;1;1;1;0;0;0;1;0;1;;;;;;;;;;;;;
ZS17P0408002581;zilian;Default;simple;Zilian/Botins;base;Botins em cobra toupeira e pele bordeaux;"<table border=\"0\" cellspacing=\"0\" cellpadding=\"0\">\r\n<tbody>\r\n<tr height=\"19\">\r\n<td class=\"xl67\" height=\"19\" width=\"242\">Material exterior - Pele bovina</td>\r\n</tr>\r\n<tr height=\"19\">\r\n<td class=\"xl67\" height=\"19\">Material interior - Pele</td>\r\n</tr>\r\n<tr height=\"19\">\r\n<td class=\"xl67\" height=\"19\">Tamanho salto - 4,5 cm<br><br></td>\r\n</tr>\r\n</tbody>\r\n</table>";;1.0;1;Taxable Goods;Catalog, Search;119.90;;;;ZS17P0408002581;;;;ZS17P0408002581.jpg;;ZS17P0408002581.jpg;;ZS17P0408002581.jpg;;;;;;Block after Info Column;;;;;;;;;;;Use config;;manufacturer=Zilian;100;0;1;0;0;1;1;1;1000;1;1;1;1;1;1;1;1;0;0;0;1;0;1;;;;;;;;;;;;;
ZS17P0408002580;zilian;Default;simple;Zilian/Botins;base;Botins em pele quebrada bordeaux;"<table border=\"0\" cellspacing=\"0\" cellpadding=\"0\">\r\n<tbody>\r\n<tr height=\"19\">\r\n<td class=\"xl67\" height=\"19\" width=\"242\">Material exterior - Pele</td>\r\n</tr>\r\n<tr height=\"19\">\r\n<td class=\"xl67\" height=\"19\">Material interior - Pele</td>\r\n</tr>\r\n<tr height=\"19\">\r\n<td class=\"xl67\" height=\"19\">Tamanho salto - 4,5 cm<br><br></td>\r\n</tr>\r\n</tbody>\r\n</table>";;1.0;1;Taxable Goods;Catalog, Search;99.90;;;;ZS17P0408002580;;;;ZS17P0408002580.jpg;;ZS17P0408002580.jpg;;ZS17P0408002580.jpg;;;;;;Block after Info Column;;;;;;;;;;;Use config;;manufacturer=Zilian;100;0;1;0;0;1;1;1;1000;1;1;1;1;1;1;1;1;0;0;0;1;0;1;;;;;;;;;;;;;
ZS17P0104002697;zilian;Default;simple;Zilian/Sandálias;base;Sandálias em nobuck fúcsia;"<table border=\"0\" cellspacing=\"0\" cellpadding=\"0\">\r\n<tbody>\r\n<tr height=\"19\">\r\n<td class=\"xl67\" height=\"19\" width=\"242\">Material exterior - Nobuck</td>\r\n</tr>\r\n<tr height=\"19\">\r\n<td class=\"xl67\" height=\"19\">Material interior - Poliuretano</td>\r\n</tr>\r\n<tr height=\"19\">\r\n<td class=\"xl67\" height=\"19\">Tamanho salto - 9 cm<br><br></td>\r\n</tr>\r\n</tbody>\r\n</table>";;1.0;1;Taxable Goods;Catalog, Search;79.90;;;;ZS17P0104002697;;;;ZS17P0104002697.jpg;;ZS17P0104002697.jpg;;ZS17P0104002697.jpg;;;;;;Block after Info Column;;;;;;;;;;;Use config;;manufacturer=Zilian;100;0;1;0;0;1;1;1;1000;1;1;1;1;1;1;1;1;0;0;0;1;0;1;;;;;;;;;;;;;
ZS16O0201002380;zilian;Default;simple;Zilian/Sapatos;base;Sapatos em camurça rosa seco;"<table border=\"0\" cellspacing=\"0\" cellpadding=\"0\">\r\n<tbody>\r\n<tr height=\"19\">\r\n<td class=\"xl67\" height=\"19\" width=\"242\">Material exterior - Camurça</td>\r\n</tr>\r\n<tr height=\"19\">\r\n<td class=\"xl67\" height=\"19\">Material interior - Pele</td>\r\n</tr>\r\n<tr height=\"19\">\r\n<td class=\"xl67\" height=\"19\">Tamanho salto - 5 cm<br><br></td>\r\n</tr>\r\n</tbody>\r\n</table>";;1.0;1;Taxable Goods;Catalog, Search;79.90;;;;ZS16O0201002380;;;;ZS16O0201002380.jpg;;ZS16O0201002380.jpg;;ZS16O0201002380.jpg;;;;;;Block after Info Column;;;;;;;;;;;Use config;;manufacturer=Zilian;100;0;1;0;0;1;1;1;1000;1;1;1;1;1;1;1;1;0;0;0;1;0;1;;;;;;;;;;;;;
ZS17P0104002645;zilian;Default;simple;Zilian/Sandálias;base;Sandálias em pele fúcsia;"<table border=\"0\" cellspacing=\"0\" cellpadding=\"0\">\r\n<tbody>\r\n<tr height=\"19\">\r\n<td class=\"xl67\" height=\"19\" width=\"242\">Material exterior - Pele</td>\r\n</tr>\r\n<tr height=\"19\">\r\n<td class=\"xl67\" height=\"19\">Material interior - Poliuretano</td>\r\n</tr>\r\n<tr height=\"19\">\r\n<td class=\"xl67\" height=\"19\">Tamanho salto - 7 cm<br><br></td>\r\n</tr>\r\n</tbody>\r\n</table>";;1.0;1;Taxable Goods;Catalog, Search;69.90;;;;ZS17P0104002645;;;;ZS17P0104002645.jpg;;ZS17P0104002645.jpg;;ZS17P0104002645.jpg;;;;;;Block after Info Column;;;;;;;;;;;Use config;;manufacturer=Zilian;100;0;1;0;0;1;1;1;1000;1;1;1;1;1;1;1;1;0;0;0;1;0;1;;;;;;;;;;;;;
ZS17P0204002735;zilian;Default;simple;Zilian/Sandálias;base;Sandálias em pele fúcsia;"<table border=\"0\" cellspacing=\"0\" cellpadding=\"0\">\r\n<tbody>\r\n<tr height=\"19\">\r\n<td class=\"xl67\" height=\"19\" width=\"242\">Material exterior - Pele</td>\r\n</tr>\r\n<tr height=\"19\">\r\n<td class=\"xl67\" height=\"19\">Material interior - Poliuretano</td>\r\n</tr>\r\n<tr height=\"19\">\r\n<td class=\"xl67\" height=\"19\">Tamanho salto - 5 cm<br><br></td>\r\n</tr>\r\n</tbody>\r\n</table>";;1.0;1;Taxable Goods;Catalog, Search;79.90;;;;ZS17P0204002735;;;;ZS17P0204002735.jpg;;ZS17P0204002735.jpg;;ZS17P0204002735.jpg;;;;;;Block after Info Column;;;;;;;;;;;Use config;;manufacturer=Zilian;100;0;1;0;0;1;1;1;1000;1;1;1;1;1;1;1;1;0;0;0;1;0;1;;;;;;;;;;;;;
ZS17P0201002600;zilian;Default;simple;Zilian/Sapatos;base;Sapatos em croute azul;"<table border=\"0\" cellspacing=\"0\" cellpadding=\"0\">\r\n<tbody>\r\n<tr height=\"19\">\r\n<td class=\"xl67\" height=\"19\" width=\"242\">Material exterior - Camurça</td>\r\n</tr>\r\n<tr height=\"19\">\r\n<td class=\"xl67\" height=\"19\">Material interior - Pele</td>\r\n</tr>\r\n<tr height=\"19\">\r\n<td class=\"xl67\" height=\"19\">Tamanho salto - 5,5 cm<br><br></td>\r\n</tr>\r\n</tbody>\r\n</table>";;1.0;1;Taxable Goods;Catalog, Search;89.90;;;;ZS17P0201002600;;;;ZS17P0201002600.jpg;;ZS17P0201002600.jpg;;ZS17P0201002600.jpg;;;;;;Block after Info Column;;;;;;;;;;;Use config;;manufacturer=Zilian;100;0;1;0;0;1;1;1;1000;1;1;1;1;1;1;1;1;0;0;0;1;0;1;;;;;;;;;;;;;
ZS17P0201002600;zilian;Default;simple;Zilian/Sapatos;base;Sapatos em croute azul velho;"<table border=\"0\" cellspacing=\"0\" cellpadding=\"0\">\r\n<tbody>\r\n<tr height=\"19\">\r\n<td class=\"xl67\" height=\"19\" width=\"242\">Material exterior - Croute</td>\r\n</tr>\r\n<tr height=\"19\">\r\n<td class=\"xl67\" height=\"19\">Material interior - Pele</td>\r\n</tr>\r\n<tr height=\"19\">\r\n<td class=\"xl67\" height=\"19\">Tamanho salto - 5,5 cm<br><br></td>\r\n</tr>\r\n</tbody>\r\n</table>";;1.0;1;Taxable Goods;Catalog, Search;89.90;;;;ZS17P0201002600;;;;ZS17P0201002600.jpg;;ZS17P0201002600.jpg;;ZS17P0201002600.jpg;;;;;;Block after Info Column;;;;;;;;;;;Use config;;manufacturer=Zilian;100;0;1;0;0;1;1;1;1000;1;1;1;1;1;1;1;1;0;0;0;1;0;1;;;;;;;;;;;;;
ZS17P0401002601;zilian;Default;simple;Zilian/Sapatos;base;Sapatos em croute azul;"<table border=\"0\" cellspacing=\"0\" cellpadding=\"0\">\r\n<tbody>\r\n<tr height=\"19\">\r\n<td class=\"xl67\" height=\"19\" width=\"242\">Material exterior - Croute</td>\r\n</tr>\r\n<tr height=\"19\">\r\n<td class=\"xl67\" height=\"19\">Material interior - Pele</td>\r\n</tr>\r\n<tr height=\"19\">\r\n<td class=\"xl67\" height=\"19\"></td>\r\n</tr>\r\n</tbody>\r\n</table>";;1.0;1;Taxable Goods;Catalog, Search;79.90;;;;ZS17P0401002601;;;;ZS17P0401002601.jpg;;ZS17P0401002601.jpg;;ZS17P0401002601.jpg;;;;;;Block after Info Column;;;;;;;;;;;Use config;;manufacturer=Zilian;100;0;1;0;0;1;1;1;1000;1;1;1;1;1;1;1;1;0;0;0;1;0;1;;;;;;;;;;;;;
ZS17P0402002744;zilian;Default;simple;Zilian/Sabrinas;base;Sabrinas em tecido esmeralda;"<table border=\"0\" cellspacing=\"0\" cellpadding=\"0\">\r\n<tbody>\r\n<tr height=\"19\">\r\n<td class=\"xl67\" height=\"19\" width=\"242\">Material exterior - Tecido</td>\r\n</tr>\r\n<tr height=\"19\">\r\n<td class=\"xl67\" height=\"19\">Material interior - Poliuretano</td>\r\n</tr>\r\n<tr height=\"19\">\r\n<td class=\"xl67\" height=\"19\"><br><br></td>\r\n</tr>\r\n</tbody>\r\n</table>\r\n<p><br><br></p>";;1.0;1;Taxable Goods;Catalog, Search;69.90;;;;ZS17P0402002744;;;;ZS17P0402002744.jpg;;ZS17P0402002744.jpg;;ZS17P0402002744.jpg;;;;;;Block after Info Column;;;;;;;;;;;Use config;;manufacturer=Zilian;100;0;1;0;0;1;1;1;1000;1;1;1;1;1;1;1;1;0;0;0;1;0;1;;;;;;;;;;;;;
ZS15C0201001879;zilian;Default;simple;Zilian/Sapatos;base;Sapatos em camurça esmeralda;"<table border=\"0\" cellpadding=\"0\" cellspacing=\"0\">\r\n<tbody>\r\n<tr height=\"19\">\r\n<td class=\"xl67\" height=\"19\">\r\n<p>Material exterior - Camurça</p>\r\n<p>Material interior - Pele</p>\r\n</td>\r\n</tr>\r\n<tr height=\"19\">\r\n<td class=\"xl67\" height=\"19\">\r\n<p>Tamanho salto - 5 cm</p>\r\n<div></div>\r\n</td>\r\n</tr>\r\n</tbody>\r\n</table>\r\n<p><br><br><br><br></p>";;1.0;1;Taxable Goods;Catalog, Search;79.90;;;;ZS15C0201001879;;;;ZS15C0201001879.jpg;;ZS15C0201001879.jpg;;ZS15C0201001879.jpg;;;;;;Block after Info Column;;;;;;;;;;;Use config;;manufacturer=Zilian;100;0;1;0;0;1;1;1;1000;1;1;1;1;1;1;1;1;0;0;0;1;0;1;;;;;;;;;;;;;
ZS17P0204002717;zilian;Default;simple;Zilian/Sandálias;base;Sandálias em pele esmeralda;"<table border=\"0\" cellspacing=\"0\" cellpadding=\"0\">\r\n<tbody>\r\n<tr height=\"19\">\r\n<td class=\"xl67\" height=\"19\" width=\"242\">Material exterior - Pele</td>\r\n</tr>\r\n<tr height=\"19\">\r\n<td class=\"xl67\" height=\"19\">Material interior - Poliuretano</td>\r\n</tr>\r\n<tr height=\"19\">\r\n<td class=\"xl67\" height=\"19\">Plataforma - 3,5 cm<br><br></td>\r\n</tr>\r\n<tr height=\"19\">\r\n<td class=\"xl67\" height=\"19\">Tacão- 10 cm<br><br></td>\r\n</tr>\r\n</tbody>\r\n</table>";;1.0;1;Taxable Goods;Catalog, Search;89.90;;;;ZS17P0204002717;;;;ZS17P0204002717.jpg;;ZS17P0204002717.jpg;;ZS17P0204002717.jpg;;;;;;Block after Info Column;;;;;;;;;;;Use config;;manufacturer=Zilian;100;0;1;0;0;1;1;1;1000;1;1;1;1;1;1;1;1;0;0;0;1;0;1;;;;;;;;;;;;;
ZS15C0201001878;zilian;Default;simple;Zilian/Sapatos;base;Sapatos em camurça esmeralda;"<table border=\"0\" cellpadding=\"0\" cellspacing=\"0\">\r\n<tbody>\r\n<tr height=\"19\">\r\n<td class=\"xl67\" height=\"19\">\r\n<p>Material exterior - Camurça</p>\r\n<p>Material interior - Pele</p>\r\n</td>\r\n</tr>\r\n<tr height=\"19\">\r\n<td class=\"xl67\" height=\"19\">\r\n<p>Tamanho salto - 3  cm</p>\r\n<div></div>\r\n</td>\r\n</tr>\r\n</tbody>\r\n</table>";;1.0;1;Taxable Goods;Catalog, Search;79.90;;;;ZS15C0201001878;;;;ZS15C0201001878.jpg;;ZS15C0201001878.jpg;;ZS15C0201001878.jpg;;;;;;Block after Info Column;;;;;;;;;;;Use config;;manufacturer=Zilian;100;0;1;0;0;1;1;1;1000;1;1;1;1;1;1;1;1;0;0;0;1;0;1;;;;;;;;;;;;;
ZS17P0104002710;zilian;Default;simple;Zilian/Sandálias;base;Sandálias em pele verde água escuro;"<table border=\"0\" cellspacing=\"0\" cellpadding=\"0\">\r\n<tbody>\r\n<tr height=\"19\">\r\n<td class=\"xl67\" height=\"19\" width=\"242\">Material exterior - Pele</td>\r\n</tr>\r\n<tr height=\"19\">\r\n<td class=\"xl67\" height=\"19\">Material interior - Poliuretano</td>\r\n</tr>\r\n<tr height=\"19\">\r\n<td class=\"xl67\" height=\"19\">Tamanho salto - 6 cm<br><br></td>\r\n</tr>\r\n</tbody>\r\n</table>";;1.0;1;Taxable Goods;Catalog, Search;59.90;;;;ZS17P0104002710;;;;ZS17P0104002710.jpg;;ZS17P0104002710.jpg;;ZS17P0104002710.jpg;;;;;;Block after Info Column;;;;;;;;;;;Use config;;manufacturer=Zilian;100;0;1;0;0;1;1;1;1000;1;1;1;1;1;1;1;1;0;0;0;1;0;1;;;;;;;;;;;;;
ZS17P0104002807;zilian;Default;simple;Zilian/Sandálias;base;Sandálias em camurça marinho;"<table border=\"0\" cellspacing=\"0\" cellpadding=\"0\">\r\n<tbody>\r\n<tr height=\"19\">\r\n<td class=\"xl67\" height=\"19\" width=\"242\">Material exterior - Camurça</td>\r\n</tr>\r\n<tr height=\"19\">\r\n<td class=\"xl67\" height=\"19\">Material interior - Pele</td>\r\n</tr>\r\n<tr height=\"19\">\r\n<td class=\"xl67\" height=\"19\">Tamanho salto - 12,5 cm<br><br></td>\r\n</tr>\r\n<tr height=\"19\">\r\n<td class=\"xl67\" height=\"19\">Compensação - 4 cm<br><br></td>\r\n</tr>\r\n</tbody>\r\n</table>";;1.0;1;Taxable Goods;Catalog, Search;79.90;;;;ZS17P0104002807;;;;ZS17P0104002807.jpg;;ZS17P0104002807.jpg;;ZS17P0104002807.jpg;;;;;;Block after Info Column;;;;;;;;;;;Use config;;manufacturer=Zilian;100;0;1;0;0;1;1;1;1000;1;1;1;1;1;1;1;1;0;0;0;1;0;1;;;;;;;;;;;;;
ZS17P0104002762;zilian;Default;simple;Zilian/Sandálias;base;Sandálias em camurça marinho;"<table border=\"0\" cellspacing=\"0\" cellpadding=\"0\">\r\n<tbody>\r\n<tr height=\"19\">\r\n<td class=\"xl67\" height=\"19\" width=\"242\">Material exterior - Camurça</td>\r\n</tr>\r\n<tr height=\"19\">\r\n<td class=\"xl67\" height=\"19\">Material interior - Pele</td>\r\n</tr>\r\n<tr height=\"19\">\r\n<td class=\"xl67\" height=\"19\">Tamanho salto - 12,5 cm<br><br></td>\r\n</tr>\r\n<tr height=\"19\">\r\n<td class=\"xl67\" height=\"19\">Compensação - 4 cm<br><br></td>\r\n</tr>\r\n</tbody>\r\n</table>";;1.0;1;Taxable Goods;Catalog, Search;109.90;;;;ZS17P0104002762;;;;ZS17P0104002762.jpg;;ZS17P0104002762.jpg;;ZS17P0104002762.jpg;;;;;;Block after Info Column;;;;;;;;;;;Use config;;manufacturer=Zilian;100;0;1;0;0;1;1;1;1000;1;1;1;1;1;1;1;1;0;0;0;1;0;1;;;;;;;;;;;;;
ZS17P0104002677;zilian;Default;simple;Zilian/Sandálias;base;Sandálias em pele preta e marinho;"<table border=\"0\" cellspacing=\"0\" cellpadding=\"0\">\r\n<tbody>\r\n<tr height=\"19\">\r\n<td class=\"xl67\" height=\"19\" width=\"242\">Material exterior - Pele</td>\r\n</tr>\r\n<tr height=\"19\">\r\n<td class=\"xl67\" height=\"19\">Material interior - Poliuretano</td>\r\n</tr>\r\n<tr height=\"19\">\r\n<td class=\"xl67\" height=\"19\">Tamanho salto - 10 cm</td>\r\n</tr>\r\n<tr height=\"19\">\r\n<td class=\"xl67\" height=\"19\"><br><br></td>\r\n</tr>\r\n</tbody>\r\n</table>";;1.0;1;Taxable Goods;Catalog, Search;89.90;;;;ZS17P0104002677;;;;ZS17P0104002677.jpg;;ZS17P0104002677.jpg;;ZS17P0104002677.jpg;;;;;;Block after Info Column;;;;;;;;;;;Use config;;manufacturer=Zilian;100;0;1;0;0;1;1;1;1000;1;1;1;1;1;1;1;1;0;0;0;1;0;1;;;;;;;;;;;;;
ZS17P0102002708;zilian;Default;simple;Zilian/Sapatos;base;Sapatos em pele preta;"<table border=\"0\" cellspacing=\"0\" cellpadding=\"0\">\r\n<tbody>\r\n<tr height=\"19\">\r\n<td class=\"xl67\" height=\"19\" width=\"242\">Material exterior - Pele</td>\r\n</tr>\r\n<tr height=\"19\">\r\n<td class=\"xl67\" height=\"19\">Material interior - Poliuretano</td>\r\n</tr>\r\n<tr height=\"19\">\r\n<td class=\"xl67\" height=\"19\">Tamanho salto -7 cm<br><br></td>\r\n</tr>\r\n</tbody>\r\n</table>";;1.0;1;Taxable Goods;Catalog, Search;79.90;;;;ZS17P0102002708;;;;ZS17P0102002708.jpg;;ZS17P0102002708.jpg;;ZS17P0102002708.jpg;;;;;;Block after Info Column;;;;;;;;;;;Use config;;manufacturer=Zilian;100;0;1;0;0;1;1;1;1000;1;1;1;1;1;1;1;1;0;0;0;1;0;1;;;;;;;;;;;;;
ZS17P0102002599;zilian;Default;simple;Zilian/Sapatos;base;Sapatos em camurça preta;"<table border=\"0\" cellspacing=\"0\" cellpadding=\"0\">\r\n<tbody>\r\n<tr height=\"19\">\r\n<td class=\"xl67\" height=\"19\" width=\"242\">Material exterior - Camurça</td>\r\n</tr>\r\n<tr height=\"19\">\r\n<td class=\"xl67\" height=\"19\">Material interior - Pele</td>\r\n</tr>\r\n<tr height=\"19\">\r\n<td class=\"xl67\" height=\"19\">Tamanho salto - 9 cm<br><br></td>\r\n</tr>\r\n</tbody>\r\n</table>";;1.0;1;Taxable Goods;Catalog, Search;89.90;;;;ZS17P0102002599;;;;ZS17P0102002599.jpg;;ZS17P0102002599.jpg;;ZS17P0102002599.jpg;;;;;;Block after Info Column;;;;;;;;;;;Use config;;manufacturer=Zilian;100;0;1;0;0;1;1;1;1000;1;1;1;1;1;1;1;1;0;0;0;1;0;1;;;;;;;;;;;;;
ZS17O0104002771;zilian;Default;simple;Zilian/Sapatos;base;Sapatos em camurça preta;"<table border=\"0\" cellspacing=\"0\" cellpadding=\"0\">\r\n<tbody>\r\n<tr height=\"19\">\r\n<td class=\"xl67\" height=\"19\" width=\"242\">Material exterior - Camurça</td>\r\n</tr>\r\n<tr height=\"19\">\r\n<td class=\"xl67\" height=\"19\">Material interior - Pele</td>\r\n</tr>\r\n<tr height=\"19\">\r\n<td class=\"xl67\" height=\"19\">\r\n<p>Tamanho salto - 12,5 cm<br><br></p>\r\n<p>Compensação- 3 cm</p>\r\n</td>\r\n</tr>\r\n</tbody>\r\n</table>";;1.0;1;Taxable Goods;Catalog, Search;99.90;;;;ZS17O0104002771;;;;ZS17O0104002771.jpg;;ZS17O0104002771.jpg;;ZS17O0104002771.jpg;;;;;;Block after Info Column;;;;;;;;;;;Use config;;manufacturer=Zilian;100;0;1;0;0;1;1;1;1000;1;1;1;1;1;1;1;1;0;0;0;1;0;1;;;;;;;;;;;;;
ZS17P0104002821;zilian;Default;simple;Zilian/Sandálias;base;Sandálias em pele toupeira;"<table border=\"0\" cellspacing=\"0\" cellpadding=\"0\">\r\n<tbody>\r\n<tr height=\"19\">\r\n<td class=\"xl67\" height=\"19\" width=\"242\">Material exterior - Pele</td>\r\n</tr>\r\n<tr height=\"19\">\r\n<td class=\"xl67\" height=\"19\">Material interior - Pele</td>\r\n</tr>\r\n<tr height=\"19\">\r\n<td class=\"xl67\" height=\"19\">Tamanho salto - 8 cm<br><br></td>\r\n</tr>\r\n</tbody>\r\n</table>";;1.0;1;Taxable Goods;Catalog, Search;89.90;;;;ZS17P0104002821;;;;ZS17P0104002821.jpg;;ZS17P0104002821.jpg;;ZS17P0104002821.jpg;;;;;;Block after Info Column;;;;;;;;;;;Use config;;manufacturer=Zilian;100;0;1;0;0;1;1;1;1000;1;1;1;1;1;1;1;1;0;0;0;1;0;1;;;;;;;;;;;;;
ZS17P0104002694;zilian;Default;simple;Zilian/Sandálias;base;Sandálias em pele castanha;"<table border=\"0\" cellspacing=\"0\" cellpadding=\"0\">\r\n<tbody>\r\n<tr height=\"19\">\r\n<td class=\"xl67\" height=\"19\" width=\"242\">Material exterior - Pele </td>\r\n</tr>\r\n<tr height=\"19\">\r\n<td class=\"xl67\" height=\"19\">Material interior - Poliuretano</td>\r\n</tr>\r\n<tr height=\"19\">\r\n<td class=\"xl67\" height=\"19\">Tamanho salto - 12 cm</td>\r\n</tr>\r\n<tr height=\"19\">\r\n<td class=\"xl67\" height=\"19\">Compensação - 3,5 cm<br><br></td>\r\n</tr>\r\n</tbody>\r\n</table>";;1.0;1;Taxable Goods;Catalog, Search;89.90;;;;ZS17P0104002694;;;;ZS17P0104002694.jpg;;ZS17P0104002694.jpg;;ZS17P0104002694.jpg;;;;;;Block after Info Column;;;;;;;;;;;Use config;;manufacturer=Zilian;100;0;1;0;0;1;1;1;1000;1;1;1;1;1;1;1;1;0;0;0;1;0;1;;;;;;;;;;;;;
ZS17P0104002687;zilian;Default;simple;Zilian/Sandálias;base;Sandálias de pele castanha;"<table border=\"0\" cellspacing=\"0\" cellpadding=\"0\">\r\n<tbody>\r\n<tr height=\"19\">\r\n<td class=\"xl67\" height=\"19\" width=\"242\">Material exterior - Pele </td>\r\n</tr>\r\n<tr height=\"19\">\r\n<td class=\"xl67\" height=\"19\">Material interior - Poliuretano</td>\r\n</tr>\r\n<tr height=\"19\">\r\n<td class=\"xl67\" height=\"19\">Tamanho salto - 13 cm</td>\r\n</tr>\r\n<tr height=\"19\">\r\n<td class=\"xl67\" height=\"19\">Compensação - 4 cm<br><br></td>\r\n</tr>\r\n</tbody>\r\n</table>";;1.0;1;Taxable Goods;Catalog, Search;89.90;;;;ZS17P0104002687;;;;ZS17P0104002687.jpg;;ZS17P0104002687.jpg;;ZS17P0104002687.jpg;;;;;;Block after Info Column;;;;;;;;;;;Use config;;manufacturer=Zilian;100;0;1;0;0;1;1;1;1000;1;1;1;1;1;1;1;1;0;0;0;1;0;1;;;;;;;;;;;;;
ZS17P0104002678;zilian;Default;simple;Zilian/Sandálias;base;Sandálias em pele castanha;"<table border=\"0\" cellspacing=\"0\" cellpadding=\"0\">\r\n<tbody>\r\n<tr height=\"19\">\r\n<td class=\"xl67\" height=\"19\" width=\"242\">Material exterior - Pele</td>\r\n</tr>\r\n<tr height=\"19\">\r\n<td class=\"xl67\" height=\"19\">Material interior - Poliuretano</td>\r\n</tr>\r\n<tr height=\"19\">\r\n<td class=\"xl67\" height=\"19\">Tamanho salto - 10 cm<br><br></td>\r\n</tr>\r\n</tbody>\r\n</table>";;1.0;1;Taxable Goods;Catalog, Search;89.90;;;;ZS17P0104002678;;;;ZS17P0104002678.jpg;;ZS17P0104002678.jpg;;ZS17P0104002678.jpg;;;;;;Block after Info Column;;;;;;;;;;;Use config;;manufacturer=Zilian;100;0;1;0;0;1;1;1;1000;1;1;1;1;1;1;1;1;0;0;0;1;0;1;;;;;;;;;;;;;
ZS17P0104002695;zilian;Default;simple;Zilian/Sandálias;base;Sandálias em pele laranja;"<table border=\"0\" cellspacing=\"0\" cellpadding=\"0\">\r\n<tbody>\r\n<tr height=\"19\">\r\n<td class=\"xl67\" height=\"19\" width=\"242\">Material exterior - Pele</td>\r\n</tr>\r\n<tr height=\"19\">\r\n<td class=\"xl67\" height=\"19\">Material interior - Poliuretano</td>\r\n</tr>\r\n<tr height=\"19\">\r\n<td class=\"xl67\" height=\"19\">Tamanho salto - 7 cm<br><br></td>\r\n</tr>\r\n</tbody>\r\n</table>";;1.0;1;Taxable Goods;Catalog, Search;69.90;;;;ZS17P0104002695;;;;ZS17P0104002695.jpg;;ZS17P0104002695.jpg;;ZS17P0104002695.jpg;;;;;;Block after Info Column;;;;;;;;;;;Use config;;manufacturer=Zilian;100;0;1;0;0;1;1;1;1000;1;1;1;1;1;1;1;1;0;0;0;1;0;1;;;;;;;;;;;;;
ZS17P0104002683;zilian;Default;simple;Zilian/Sandálias;base;Sandálias em nobuck laranja;"<table border=\"0\" cellspacing=\"0\" cellpadding=\"0\">\r\n<tbody>\r\n<tr height=\"19\">\r\n<td class=\"xl67\" height=\"19\" width=\"242\">Material exterior - Nobuck</td>\r\n</tr>\r\n<tr height=\"19\">\r\n<td class=\"xl67\" height=\"19\">Material interior - Poliuretano</td>\r\n</tr>\r\n<tr height=\"19\">\r\n<td class=\"xl67\" height=\"19\">Tamanho salto - 9 cm<br><br></td>\r\n</tr>\r\n</tbody>\r\n</table>";;1.0;1;Taxable Goods;Catalog, Search;89.90;;;;ZS17P0104002683;;;;ZS17P0104002683.jpg;;ZS17P0104002683.jpg;;ZS17P0104002683.jpg;;;;;;Block after Info Column;;;;;;;;;;;Use config;;manufacturer=Zilian;100;0;1;0;0;1;1;1;1000;1;1;1;1;1;1;1;1;0;0;0;1;0;1;;;;;;;;;;;;;
ZS17P0413002662;zilian;Default;simple;Zilian/Sabrinas;base;Sabrinas em pele mostarda;"<table border=\"0\" cellspacing=\"0\" cellpadding=\"0\">\r\n<tbody>\r\n<tr height=\"19\">\r\n<td class=\"xl67\" height=\"19\" width=\"242\">Material exterior - Pele </td>\r\n</tr>\r\n<tr height=\"19\">\r\n<td class=\"xl67\" height=\"19\">Material interior - Poliuretano</td>\r\n</tr>\r\n<tr height=\"19\">\r\n<td class=\"xl67\" height=\"19\"></td>\r\n</tr>\r\n</tbody>\r\n</table>";;1.0;1;Taxable Goods;Catalog, Search;59.90;;;;ZS17P0413002662;;;;ZS17P0413002662.jpg;;ZS17P0413002662.jpg;;ZS17P0413002662.jpg;;;;;;Block after Info Column;;;;;;;;;;;Use config;;manufacturer=Zilian;100;0;1;0;0;1;1;1;1000;1;1;1;1;1;1;1;1;0;0;0;1;0;1;;;;;;;;;;;;;
ZS17O0202002773;zilian;Default;simple;Zilian/Mules;base;Mules em camurça camel;"<table border=\"0\" cellspacing=\"0\" cellpadding=\"0\">\r\n<tbody>\r\n<tr height=\"19\">\r\n<td class=\"xl67\" height=\"19\" width=\"242\">Material exterior - Camurça</td>\r\n</tr>\r\n<tr height=\"19\">\r\n<td class=\"xl67\" height=\"19\">Material interior - Pele</td>\r\n</tr>\r\n<tr height=\"19\">\r\n<td class=\"xl67\" height=\"19\">Tamanho salto - 3 cm<br><br></td>\r\n</tr>\r\n</tbody>\r\n</table>";;1.0;1;Taxable Goods;Catalog, Search;79.90;;;;ZS17O0202002773;;;;ZS17O0202002773.jpg;;ZS17O0202002773.jpg;;ZS17O0202002773.jpg;;;;;;Block after Info Column;;;;;;;;;;;Use config;;manufacturer=Zilian;100;0;1;0;0;1;1;1;1000;1;1;1;1;1;1;1;1;0;0;0;1;0;1;;;;;;;;;;;;;
ZS17P0104002660;zilian;Default;simple;Zilian/Sandálias;base;Sandálias em nobuck mostarda;"<table border=\"0\" cellspacing=\"0\" cellpadding=\"0\">\r\n<tbody>\r\n<tr height=\"19\">\r\n<td class=\"xl67\" height=\"19\" width=\"242\">Material exterior - Nobuck</td>\r\n</tr>\r\n<tr height=\"19\">\r\n<td class=\"xl67\" height=\"19\">Material interior - Poliuretano</td>\r\n</tr>\r\n<tr height=\"19\">\r\n<td class=\"xl67\" height=\"19\">Tamanho salto - 9 cm</td>\r\n</tr>\r\n<tr height=\"19\">\r\n<td class=\"xl67\" height=\"19\"><br><br></td>\r\n</tr>\r\n</tbody>\r\n</table>\r\n<p><br><br></p>";;1.0;1;Taxable Goods;Catalog, Search;79.90;;;;ZS17P0104002660;;;;ZS17P0104002660.jpg;;ZS17P0104002660.jpg;;ZS17P0104002660.jpg;;;;;;Block after Info Column;;;;;;;;;;;Use config;;manufacturer=Zilian;100;0;1;0;0;1;1;1;1000;1;1;1;1;1;1;1;1;0;0;0;1;0;1;;;;;;;;;;;;;
ZF17P0104002682;zilian;Default;simple;Zilian/Sandálias;base;Sandálias em nobuck amarelo;"<table border=\"0\" cellspacing=\"0\" cellpadding=\"0\">\r\n<tbody>\r\n<tr height=\"19\">\r\n<td class=\"xl67\" height=\"19\" width=\"242\">Material exterior - Nobuck</td>\r\n</tr>\r\n<tr height=\"19\">\r\n<td class=\"xl67\" height=\"19\">Material interior - Poliuretano</td>\r\n</tr>\r\n<tr height=\"19\">\r\n<td class=\"xl67\" height=\"19\">Tamanho salto - 10 cm<br><br></td>\r\n</tr>\r\n</tbody>\r\n</table>";;1.0;1;Taxable Goods;Catalog, Search;79.90;;;;ZF17P0104002682;;;;ZF17P0104002682.jpg;;ZF17P0104002682.jpg;;ZF17P0104002682.jpg;;;;;;Block after Info Column;;;;;;;;;;;Use config;;manufacturer=Zilian;100;0;1;0;0;1;1;1;1000;1;1;1;1;1;1;1;1;0;0;0;1;0;1;;;;;;;;;;;;;
ZS17P0104002715;zilian;Default;simple;Zilian/Sandálias;base;Sandálias em nobuck camel;"<table border=\"0\" cellspacing=\"0\" cellpadding=\"0\">\r\n<tbody>\r\n<tr height=\"19\">\r\n<td class=\"xl67\" height=\"19\" width=\"242\">Material exterior - Nobuck</td>\r\n</tr>\r\n<tr height=\"19\">\r\n<td class=\"xl67\" height=\"19\">Material interior - Poliuretano</td>\r\n</tr>\r\n<tr height=\"19\">\r\n<td class=\"xl67\" height=\"19\">Tamanho salto - 12,5 cm<br><br></td>\r\n</tr>\r\n<tr height=\"19\">\r\n<td class=\"xl67\" height=\"19\">Compensação - 4 cm<br><br></td>\r\n</tr>\r\n</tbody>\r\n</table>";;1.0;1;Taxable Goods;Catalog, Search;99.90;;;;ZS17P0104002715;;;;ZS17P0104002715.jpg;;ZS17P0104002715.jpg;;ZS17P0104002715.jpg;;;;;;Block after Info Column;;;;;;;;;;;Use config;;manufacturer=Zilian;100;0;1;0;0;1;1;1;1000;1;1;1;1;1;1;1;1;0;0;0;1;0;1;;;;;;;;;;;;;
ZS17P0104002635;zilian;Default;simple;Zilian/Sandálias;base;Sandálias em nobuck laranja;"<table border=\"0\" cellspacing=\"0\" cellpadding=\"0\">\r\n<tbody>\r\n<tr height=\"19\">\r\n<td class=\"xl67\" height=\"19\" width=\"242\">Material exterior - Nobuck</td>\r\n</tr>\r\n<tr height=\"19\">\r\n<td class=\"xl67\" height=\"19\">Material interior - Poliuretano</td>\r\n</tr>\r\n<tr height=\"19\">\r\n<td class=\"xl67\" height=\"19\">Tamanho salto - 9 cm<br><br></td>\r\n</tr>\r\n<tr height=\"19\">\r\n<td class=\"xl67\" height=\"19\">Compensação - 3,5 cm<br><br></td>\r\n</tr>\r\n</tbody>\r\n</table>\r\n<p><br><br><br><br></p>";;1.0;1;Taxable Goods;Catalog, Search;79.90;;;;ZS17P0104002635;;;;ZS17P0104002635.jpg;;ZS17P0104002635.jpg;;ZS17P0104002635.jpg;;;;;;Block after Info Column;;;;;;;;;;;Use config;;manufacturer=Zilian;100;0;1;0;0;1;1;1;1000;1;1;1;1;1;1;1;1;0;0;0;1;0;1;;;;;;;;;;;;;
ZS17P0204002732;zilian;Default;simple;Zilian/Sandálias;base;Sandálias em nobuck morango;"<table border=\"0\" cellspacing=\"0\" cellpadding=\"0\">\r\n<tbody>\r\n<tr height=\"19\">\r\n<td class=\"xl67\" height=\"19\" width=\"242\">Material exterior - Nobuck</td>\r\n</tr>\r\n<tr height=\"19\">\r\n<td class=\"xl67\" height=\"19\">Material interior - Poliuretano</td>\r\n</tr>\r\n<tr height=\"19\">\r\n<td class=\"xl67\" height=\"19\">Tamanho salto - 5,5 cm<br><br></td>\r\n</tr>\r\n</tbody>\r\n</table>";;1.0;1;Taxable Goods;Catalog, Search;79.90;;;;ZS17P0204002732;;;;ZS17P0204002732.jpg;;ZS17P0204002732.jpg;;ZS17P0204002732.jpg;;;;;;Block after Info Column;;;;;;;;;;;Use config;;manufacturer=Zilian;100;0;1;0;0;1;1;1;1000;1;1;1;1;1;1;1;1;0;0;0;1;0;1;;;;;;;;;;;;;
ZS17P0104002644;zilian;Default;simple;Zilian/Sandálias;base;Sandálias de nobuck morango;"<table border=\"0\" cellspacing=\"0\" cellpadding=\"0\">\r\n<tbody>\r\n<tr height=\"19\">\r\n<td class=\"xl67\" height=\"19\" width=\"242\">Material exterior - Nobuck</td>\r\n</tr>\r\n<tr height=\"19\">\r\n<td class=\"xl67\" height=\"19\">Material interior - Poliuretano</td>\r\n</tr>\r\n<tr height=\"19\">\r\n<td class=\"xl67\" height=\"19\">Tamanho salto - 8 cm<br><br></td>\r\n</tr>\r\n</tbody>\r\n</table>\r\n<p><br><br><br><br></p>";;1.0;1;Taxable Goods;Catalog, Search;79.90;;;;ZS17P0104002644;;;;ZS17P0104002644.jpg;;ZS17P0104002644.jpg;;ZS17P0104002644.jpg;;;;;;Block after Info Column;;;;;;;;;;;Use config;;manufacturer=Zilian;100;0;1;0;0;1;1;1;1000;1;1;1;1;1;1;1;1;0;0;0;1;0;1;;;;;;;;;;;;;
ZS17P0102002707;zilian;Default;simple;Zilian/Sapatos;base;Sapatos em nobuck vermelho;"<table border=\"0\" cellspacing=\"0\" cellpadding=\"0\">\r\n<tbody>\r\n<tr height=\"19\">\r\n<td class=\"xl67\" height=\"19\" width=\"242\">Material exterior - Nobuck</td>\r\n</tr>\r\n<tr height=\"19\">\r\n<td class=\"xl67\" height=\"19\">Material interior - Poliuretano</td>\r\n</tr>\r\n<tr height=\"19\">\r\n<td class=\"xl67\" height=\"19\">Tamanho salto - 11 cm<br><br></td>\r\n</tr>\r\n</tbody>\r\n</table>";;1.0;1;Taxable Goods;Catalog, Search;59.90;;;;ZS17P0102002707;;;;ZS17P0102002707.jpg;;ZS17P0102002707.jpg;;ZS17P0102002707.jpg;;;;;;Block after Info Column;;;;;;;;;;;Use config;;manufacturer=Zilian;100;0;1;0;0;1;1;1;1000;1;1;1;1;1;1;1;1;0;0;0;1;0;1;;;;;;;;;;;;;
ZS17P0104002686;zilian;Default;simple;Zilian/Sandálias;base;Sandálias de pele vermelha;"<table border=\"0\" cellspacing=\"0\" cellpadding=\"0\">\r\n<tbody>\r\n<tr height=\"19\">\r\n<td class=\"xl67\" height=\"19\" width=\"242\">Material exterior - Pele </td>\r\n</tr>\r\n<tr height=\"19\">\r\n<td class=\"xl67\" height=\"19\">Material interior - Poliuretano</td>\r\n</tr>\r\n<tr height=\"19\">\r\n<td class=\"xl67\" height=\"19\">Tamanho salto - 13 cm</td>\r\n</tr>\r\n<tr height=\"19\">\r\n<td class=\"xl67\" height=\"19\">Compensação - 4 cm<br><br></td>\r\n</tr>\r\n</tbody>\r\n</table>";;1.0;1;Taxable Goods;Catalog, Search;89.90;;;;ZS17P0104002686;;;;ZS17P0104002686.jpg;;ZS17P0104002686.jpg;;ZS17P0104002686.jpg;;;;;;Block after Info Column;;;;;;;;;;;Use config;;manufacturer=Zilian;100;0;1;0;0;1;1;1;1000;1;1;1;1;1;1;1;1;0;0;0;1;0;1;;;;;;;;;;;;;
ZS17P0104002689;zilian;Default;simple;Zilian/Sandálias;base;Sandálias em nobuck preto;"<table border=\"0\" cellspacing=\"0\" cellpadding=\"0\">\r\n<tbody>\r\n<tr height=\"19\">\r\n<td class=\"xl67\" height=\"19\" width=\"242\">Material exterior - Nobuck</td>\r\n</tr>\r\n<tr height=\"19\">\r\n<td class=\"xl67\" height=\"19\">Material interior - Poliuretano</td>\r\n</tr>\r\n<tr height=\"19\">\r\n<td class=\"xl67\" height=\"19\">Tamanho salto - 13 cm<br><br></td>\r\n</tr>\r\n<tr height=\"19\">\r\n<td class=\"xl67\" height=\"19\">Compensação - 4 cm<br><br></td>\r\n</tr>\r\n</tbody>\r\n</table>";;1.0;1;Taxable Goods;Catalog, Search;89.90;;;;ZS17P0104002689;;;;ZS17P0104002689.jpg;;ZS17P0104002689.jpg;;ZS17P0104002689.jpg;;;;;;Block after Info Column;;;;;;;;;;;Use config;;manufacturer=Zilian;100;0;1;0;0;1;1;1;1000;1;1;1;1;1;1;1;1;0;0;0;1;0;1;;;;;;;;;;;;;
ZS17P0104002696;zilian;Default;simple;Zilian/Sandálias;base;Sandálias em nobuck vermelho;"<table border=\"0\" cellspacing=\"0\" cellpadding=\"0\">\r\n<tbody>\r\n<tr height=\"19\">\r\n<td class=\"xl67\" height=\"19\" width=\"242\">Material exterior - Nobuck</td>\r\n</tr>\r\n<tr height=\"19\">\r\n<td class=\"xl67\" height=\"19\">Material interior - Poliuretano</td>\r\n</tr>\r\n<tr height=\"19\">\r\n<td class=\"xl67\" height=\"19\">Tamanho salto - 8,5 cm<br><br></td>\r\n</tr>\r\n</tbody>\r\n</table>";;1.0;1;Taxable Goods;Catalog, Search;79.90;;;;ZS17P0104002696;;;;ZS17P0104002696.jpg;;ZS17P0104002696.jpg;;ZS17P0104002696.jpg;;;;;;Block after Info Column;;;;;;;;;;;Use config;;manufacturer=Zilian;100;0;1;0;0;1;1;1;1000;1;1;1;1;1;1;1;1;0;0;0;1;0;1;;;;;;;;;;;;;
ZS17P0204002625;zilian;Default;simple;Zilian/Mules;base;Mules em pele vermelha;"<table border=\"0\" cellspacing=\"0\" cellpadding=\"0\">\r\n<tbody>\r\n<tr height=\"19\">\r\n<td class=\"xl67\" height=\"19\" width=\"242\">Material exterior - Pele</td>\r\n</tr>\r\n<tr height=\"19\">\r\n<td class=\"xl67\" height=\"19\">Material interior - Poliuretano</td>\r\n</tr>\r\n<tr height=\"19\">\r\n<td class=\"xl67\" height=\"19\">Tamanho salto - 5 cm<br><br></td>\r\n</tr>\r\n</tbody>\r\n</table>\r\n<p><br><br><br><br></p>";;1.0;1;Taxable Goods;Catalog, Search;59.90;;;;ZS17P0204002625;;;;ZS17P0204002625.jpg;;ZS17P0204002625.jpg;;ZS17P0204002625.jpg;;;;;;Block after Info Column;;;;;;;;;;;Use config;;manufacturer=Zilian;100;0;1;0;0;1;1;1;1000;1;1;1;1;1;1;1;1;0;0;0;1;0;1;;;;;;;;;;;;;
ZS17P0404002631;zilian;Default;simple;Zilian/Sandálias;base;Sandálias em pele morango;"<table border=\"0\" cellspacing=\"0\" cellpadding=\"0\">\r\n<tbody>\r\n<tr height=\"19\">\r\n<td class=\"xl67\" height=\"19\" width=\"242\">Material exterior - Pele</td>\r\n</tr>\r\n<tr height=\"19\">\r\n<td class=\"xl67\" height=\"19\">Material interior - Poliuretano</td>\r\n</tr>\r\n<tr height=\"19\">\r\n<td class=\"xl67\" height=\"19\"></td>\r\n</tr>\r\n</tbody>\r\n</table>";;1.0;1;Taxable Goods;Catalog, Search;59.90;;;;ZS17P0404002631;;;;ZS17P0404002631.jpg;;ZS17P0404002631.jpg;;ZS17P0404002631.jpg;;;;;;Block after Info Column;;;;;;;;;;;Use config;;manufacturer=Zilian;100;0;1;0;0;1;1;1;1000;1;1;1;1;1;1;1;1;0;0;0;1;0;1;;;;;;;;;;;;;
ZS17P0404002642;zilian;Default;simple;Zilian/Sandálias;base;Sandálias em pele salmão;"<table border=\"0\" cellspacing=\"0\" cellpadding=\"0\">\r\n<tbody>\r\n<tr height=\"19\">\r\n<td class=\"xl67\" height=\"19\" width=\"242\">Material exterior - Pele</td>\r\n</tr>\r\n<tr height=\"19\">\r\n<td class=\"xl67\" height=\"19\">Material interior - Poliuretano</td>\r\n</tr>\r\n<tr height=\"19\">\r\n<td class=\"xl67\" height=\"19\"></td>\r\n</tr>\r\n</tbody>\r\n</table>";;1.0;1;Taxable Goods;Catalog, Search;59.90;;;;ZS17P0404002642;;;;ZS17P0404002642.jpg;;ZS17P0404002642.jpg;;ZS17P0404002642.jpg;;;;;;Block after Info Column;;;;;;;;;;;Use config;;manufacturer=Zilian;100;0;1;0;0;1;1;1;1000;1;1;1;1;1;1;1;1;0;0;0;1;0;1;;;;;;;;;;;;;
ZS17O0401002776;zilian;Default;simple;Zilian/Sapatos;base;Sapatos em pele salmão;"<table border=\"0\" cellspacing=\"0\" cellpadding=\"0\">\r\n<tbody>\r\n<tr height=\"19\">\r\n<td class=\"xl67\" height=\"19\" width=\"242\">Material exterior - Pele caprina</td>\r\n</tr>\r\n<tr height=\"19\">\r\n<td class=\"xl67\" height=\"19\">Material interior - Pele</td>\r\n</tr>\r\n<tr height=\"19\">\r\n<td class=\"xl67\" height=\"19\"></td>\r\n</tr>\r\n</tbody>\r\n</table>";;1.0;1;Taxable Goods;Catalog, Search;89.90;;;;ZS17O0401002776;;;;ZS17O0401002776.jpg;;ZS17O0401002776.jpg;;ZS17O0401002776.jpg;;;;;;Block after Info Column;;;;;;;;;;;Use config;;manufacturer=Zilian;100;0;1;0;0;1;1;1;1000;1;1;1;1;1;1;1;1;0;0;0;1;0;1;;;;;;;;;;;;;
ZS17O0401002775;zilian;Default;simple;Zilian/Sandálias;base;Sandálias em pele salmão;"<table border=\"0\" cellspacing=\"0\" cellpadding=\"0\">\r\n<tbody>\r\n<tr height=\"19\">\r\n<td class=\"xl67\" height=\"19\" width=\"242\">Material exterior - Pele</td>\r\n</tr>\r\n<tr height=\"19\">\r\n<td class=\"xl67\" height=\"19\">Material interior - Piel</td>\r\n</tr>\r\n<tr height=\"19\">\r\n<td class=\"xl67\" height=\"19\"></td>\r\n</tr>\r\n</tbody>\r\n</table>";;1.0;1;Taxable Goods;Catalog, Search;89.90;;;;ZS17O0401002775;;;;ZS17O0401002775.jpg;;ZS17O0401002775.jpg;;ZS17O0401002775.jpg;;;;;;Block after Info Column;;;;;;;;;;;Use config;;manufacturer=Zilian;100;0;1;0;0;1;1;1;1000;1;1;1;1;1;1;1;1;0;0;0;1;0;1;;;;;;;;;;;;;
ZS17O0402002774;zilian;Default;simple;Zilian/Mules;base;Mules em camurça rosa seco;"<table border=\"0\" cellspacing=\"0\" cellpadding=\"0\">\r\n<tbody>\r\n<tr height=\"19\">\r\n<td class=\"xl67\" height=\"19\" width=\"242\">Material exterior - Camurça</td>\r\n</tr>\r\n<tr height=\"19\">\r\n<td class=\"xl67\" height=\"19\">Material interior - Pele</td>\r\n</tr>\r\n<tr height=\"19\">\r\n<td class=\"xl67\" height=\"19\">Tamanho salto - 2,5 cm<br><br></td>\r\n</tr>\r\n</tbody>\r\n</table>";;1.0;1;Taxable Goods;Catalog, Search;89.90;;;;ZS17O0402002774;;;;ZS17O0402002774.jpg;;ZS17O0402002774.jpg;;ZS17O0402002774.jpg;;;;;;Block after Info Column;;;;;;;;;;;Use config;;manufacturer=Zilian;100;0;1;0;0;1;1;1;1000;1;1;1;1;1;1;1;1;0;0;0;1;0;1;;;;;;;;;;;;;
ZS17P0401002657;zilian;Default;simple;Zilian/Sapatos;base;Sapatos em pele blush;"<table border=\"0\" cellspacing=\"0\" cellpadding=\"0\">\r\n<tbody>\r\n<tr height=\"19\">\r\n<td class=\"xl67\" height=\"19\" width=\"242\">Material exterior - Pele</td>\r\n</tr>\r\n<tr height=\"19\">\r\n<td class=\"xl67\" height=\"19\">Material interior - Poliuretano</td>\r\n</tr>\r\n<tr height=\"19\">\r\n<td class=\"xl67\" height=\"19\"><br><br></td>\r\n</tr>\r\n</tbody>\r\n</table>";;1.0;1;Taxable Goods;Catalog, Search;69.90;;;;ZS17P0401002657;;;;ZS17P0401002657.jpg;;ZS17P0401002657.jpg;;ZS17P0401002657.jpg;;;;;;Block after Info Column;;;;;;;;;;;Use config;;manufacturer=Zilian;100;0;1;0;0;1;1;1;1000;1;1;1;1;1;1;1;1;0;0;0;1;0;1;;;;;;;;;;;;;
ZS17P0204002676;zilian;Default;simple;Zilian/Sandálias;base;Sandálias em pele laminada ocre;"<table border=\"0\" cellspacing=\"0\" cellpadding=\"0\">\r\n<tbody>\r\n<tr height=\"19\">\r\n<td class=\"xl67\" height=\"19\" width=\"242\">Material exterior - Pele</td>\r\n</tr>\r\n<tr height=\"19\">\r\n<td class=\"xl67\" height=\"19\">Material interior - Poliuretano</td>\r\n</tr>\r\n<tr height=\"19\">\r\n<td class=\"xl67\" height=\"19\">Tamanho salto - 6,5 cm<br><br></td>\r\n</tr>\r\n</tbody>\r\n</table>";;1.0;1;Taxable Goods;Catalog, Search;59.90;;;;ZS17P0204002676;;;;ZS17P0204002676.jpg;;ZS17P0204002676.jpg;;ZS17P0204002676.jpg;;;;;;Block after Info Column;;;;;;;;;;;Use config;;manufacturer=Zilian;100;0;1;0;0;1;1;1;1000;1;1;1;1;1;1;1;1;0;0;0;1;0;1;;;;;;;;;;;;;
ZS17P0404002627;zilian;Default;simple;Zilian/Sandálias;base;Sandálias em pele azul velho;"<table border=\"0\" cellspacing=\"0\" cellpadding=\"0\">\r\n<tbody>\r\n<tr height=\"19\">\r\n<td class=\"xl67\" height=\"19\" width=\"242\">Material exterior - Pele </td>\r\n</tr>\r\n<tr height=\"19\">\r\n<td class=\"xl67\" height=\"19\">Material interior - Poliuretano</td>\r\n</tr>\r\n<tr height=\"19\">\r\n<td class=\"xl67\" height=\"19\"></td>\r\n</tr>\r\n</tbody>\r\n</table>";;1.0;1;Taxable Goods;Catalog, Search;79.90;;;;ZS17P0404002627;;;;ZS17P0404002627.jpg;;ZS17P0404002627.jpg;;ZS17P0404002627.jpg;;;;;;Block after Info Column;;;;;;;;;;;Use config;;manufacturer=Zilian;100;0;1;0;0;1;1;1;1000;1;1;1;1;1;1;1;1;0;0;0;1;0;1;;;;;;;;;;;;;
ZS17O0401002772;zilian;Default;simple;Zilian/Mocassins;base;Mocassins em pele marinho;"<table border=\"0\" cellspacing=\"0\" cellpadding=\"0\">\r\n<tbody>\r\n<tr height=\"19\">\r\n<td class=\"xl67\" height=\"19\" width=\"242\">Material exterior - Pele</td>\r\n</tr>\r\n<tr height=\"19\">\r\n<td class=\"xl67\" height=\"19\">Material interior - Pele</td>\r\n</tr>\r\n<tr height=\"19\">\r\n<td class=\"xl67\" height=\"19\"><br><br></td>\r\n</tr>\r\n</tbody>\r\n</table>";;1.0;1;Taxable Goods;Catalog, Search;89.90;;;;ZS17O0401002772;;;;ZS17O0401002772.jpg;;ZS17O0401002772.jpg;;ZS17O0401002772.jpg;;;;;;Block after Info Column;;;;;;;;;;;Use config;;manufacturer=Zilian;100;0;1;0;0;1;1;1;1000;1;1;1;1;1;1;1;1;0;0;0;1;0;1;;;;;;;;;;;;;
ZS17P0102002703;zilian;Default;simple;Zilian/Slingback;base;Slingback em pele marinho;"<table border=\"0\" cellspacing=\"0\" cellpadding=\"0\">\r\n<tbody>\r\n<tr height=\"19\">\r\n<td class=\"xl67\" height=\"19\" width=\"242\">Material exterior - Pele</td>\r\n</tr>\r\n<tr height=\"19\">\r\n<td class=\"xl67\" height=\"19\">Material interior - Poliuretano</td>\r\n</tr>\r\n<tr height=\"19\">\r\n<td class=\"xl67\" height=\"19\">Tamanho salto - 8 cm<br><br></td>\r\n</tr>\r\n</tbody>\r\n</table>";;1.0;1;Taxable Goods;Catalog, Search;69.90;;;;ZS17P0102002703;;;;ZS17P0102002703.jpg;;ZS17P0102002703.jpg;;ZS17P0102002703.jpg;;;;;;Block after Info Column;;;;;;;;;;;Use config;;manufacturer=Zilian;100;0;1;0;0;1;1;1;1000;1;1;1;1;1;1;1;1;0;0;0;1;0;1;;;;;;;;;;;;;
ZS17P0104002680;zilian;Default;simple;Zilian/Mules;base;Mules em pele entrançada marinho;"<table border=\"0\" cellspacing=\"0\" cellpadding=\"0\">\r\n<tbody>\r\n<tr height=\"19\">\r\n<td class=\"xl67\" height=\"19\" width=\"242\">Material exterior - Pele</td>\r\n</tr>\r\n<tr height=\"19\">\r\n<td class=\"xl67\" height=\"19\">Material interior - Poliuretano</td>\r\n</tr>\r\n<tr height=\"19\">\r\n<td class=\"xl67\" height=\"19\">Tamanho salto - 9 cm</td>\r\n</tr>\r\n<tr height=\"19\">\r\n<td class=\"xl67\" height=\"19\"><br><br></td>\r\n</tr>\r\n</tbody>\r\n</table>";;1.0;1;Taxable Goods;Catalog, Search;79.90;;;;ZS17P0104002680;;;;ZS17P0104002680.jpg;;ZS17P0104002680.jpg;;ZS17P0104002680.jpg;;;;;;Block after Info Column;;;;;;;;;;;Use config;;manufacturer=Zilian;100;0;1;0;0;1;1;1;1000;1;1;1;1;1;1;1;1;0;0;0;1;0;1;;;;;;;;;;;;;
ZS17P0104002692;zilian;Default;simple;Zilian/Sandálias;base;Sandálias em ganga azul;"<table border=\"0\" cellspacing=\"0\" cellpadding=\"0\">\r\n<tbody>\r\n<tr height=\"19\">\r\n<td class=\"xl67\" height=\"19\" width=\"242\">Material exterior - Algodão e Poliester</td>\r\n</tr>\r\n<tr height=\"19\">\r\n<td class=\"xl67\" height=\"19\">Material interior - Poliuretano</td>\r\n</tr>\r\n<tr height=\"19\">\r\n<td class=\"xl67\" height=\"19\">\r\n<p>Tamanho salto - 12,5 cm<br><br></p>\r\n<p>Compensação- 3 cm</p>\r\n<div></div>\r\n</td>\r\n</tr>\r\n</tbody>\r\n</table>";;1.0;1;Taxable Goods;Catalog, Search;79.90;;;;ZS17P0104002692;;;;ZS17P0104002692.jpg;;ZS17P0104002692.jpg;;ZS17P0104002692.jpg;;;;;;Block after Info Column;;;;;;;;;;;Use config;;manufacturer=Zilian;100;0;1;0;0;1;1;1;1000;1;1;1;1;1;1;1;1;0;0;0;1;0;1;;;;;;;;;;;;;
ZS17P0104002632;zilian;Default;simple;Zilian/Sandálias;base;Sandálias em nobuck azul velho;"<table border=\"0\" cellspacing=\"0\" cellpadding=\"0\">\r\n<tbody>\r\n<tr height=\"19\">\r\n<td class=\"xl67\" height=\"19\" width=\"242\">Material exterior - Nobuck</td>\r\n</tr>\r\n<tr height=\"19\">\r\n<td class=\"xl67\" height=\"19\">Material interior - Poliuretano</td>\r\n</tr>\r\n<tr height=\"19\">\r\n<td class=\"xl67\" height=\"19\">Tamanho salto - 10 cm<br><br></td>\r\n</tr>\r\n<tr height=\"19\">\r\n<td class=\"xl67\" height=\"19\">Compensação - 3 cm<br><br></td>\r\n</tr>\r\n</tbody>\r\n</table>\r\n<p><br><br></p>";;1.0;1;Taxable Goods;Catalog, Search;79.90;;;;ZS17P0104002632;;;;ZS17P0104002632.jpg;;ZS17P0104002632.jpg;;ZS17P0104002632.jpg;;;;;;Block after Info Column;;;;;;;;;;;Use config;;manufacturer=Zilian;100;0;1;0;0;1;1;1;1000;1;1;1;1;1;1;1;1;0;0;0;1;0;1;;;;;;;;;;;;;
ZS17P0404002647;zilian;Default;simple;Zilian/Sandálias;base;Sandálias em ganga azul;"<table border=\"0\" cellspacing=\"0\" cellpadding=\"0\">\r\n<tbody>\r\n<tr height=\"19\">\r\n<td class=\"xl67\" height=\"19\" width=\"242\">Material exterior - Ganga</td>\r\n</tr>\r\n<tr height=\"19\">\r\n<td class=\"xl67\" height=\"19\">Material interior - Poliuretano</td>\r\n</tr>\r\n<tr height=\"19\">\r\n<td class=\"xl67\" height=\"19\"><br><br></td>\r\n</tr>\r\n</tbody>\r\n</table>";;1.0;1;Taxable Goods;Catalog, Search;59.90;;;;ZS17P0404002647;;;;ZS17P0404002647.jpg;;ZS17P0404002647.jpg;;ZS17P0404002647.jpg;;;;;;Block after Info Column;;;;;;;;;;;Use config;;manufacturer=Zilian;100;0;1;0;0;1;1;1;1000;1;1;1;1;1;1;1;1;0;0;0;1;0;1;;;;;;;;;;;;;
ZS17P0202002652;zilian;Default;simple;Zilian/Slingback;base;Slingback em verniz verde água escuro;"<table border=\"0\" cellspacing=\"0\" cellpadding=\"0\">\r\n<tbody>\r\n<tr height=\"19\">\r\n<td class=\"xl67\" height=\"19\" width=\"242\">Material exterior - Verniz</td>\r\n</tr>\r\n<tr height=\"19\">\r\n<td class=\"xl67\" height=\"19\">Material interior - Poliuretano</td>\r\n</tr>\r\n<tr height=\"19\">\r\n<td class=\"xl67\" height=\"19\">Tamanho salto - 6 cm<br><br></td>\r\n</tr>\r\n</tbody>\r\n</table>";;1.0;1;Taxable Goods;Catalog, Search;69.90;;;;ZS17P0202002652;;;;ZS17P0202002652.jpg;;ZS17P0202002652.jpg;;ZS17P0202002652.jpg;;;;;;Block after Info Column;;;;;;;;;;;Use config;;manufacturer=Zilian;100;0;1;0;0;1;1;1;1000;1;1;1;1;1;1;1;1;0;0;0;1;0;1;;;;;;;;;;;;;
ZS17P0401002722;zilian;Default;simple;Zilian/Sapatos;base;Sapatos em pele marinho;"<table border=\"0\" cellspacing=\"0\" cellpadding=\"0\">\r\n<tbody>\r\n<tr height=\"19\">\r\n<td class=\"xl67\" height=\"19\" width=\"242\">Material exterior - Pele</td>\r\n</tr>\r\n<tr height=\"19\">\r\n<td class=\"xl67\" height=\"19\">Material interior - Poliuretano</td>\r\n</tr>\r\n<tr height=\"19\">\r\n<td class=\"xl67\" height=\"19\"><br><br></td>\r\n</tr>\r\n</tbody>\r\n</table>";;1.0;1;Taxable Goods;Catalog, Search;69.90;;;;ZS17P0401002722;;;;ZS17P0401002722.jpg;;ZS17P0401002722.jpg;;ZS17P0401002722.jpg;;;;;;Block after Info Column;;;;;;;;;;;Use config;;manufacturer=Zilian;100;0;1;0;0;1;1;1;1000;1;1;1;1;1;1;1;1;0;0;0;1;0;1;;;;;;;;;;;;;
ZS17P0104002720;zilian;Default;simple;Zilian/Sandálias;base;Sandálias em pele marinho;"<table border=\"0\" cellspacing=\"0\" cellpadding=\"0\">\r\n<tbody>\r\n<tr height=\"19\">\r\n<td class=\"xl67\" height=\"19\" width=\"242\">Material exterior - Pele</td>\r\n</tr>\r\n<tr height=\"19\">\r\n<td class=\"xl67\" height=\"19\">Material interior - Poliuretano</td>\r\n</tr>\r\n<tr height=\"19\">\r\n<td class=\"xl67\" height=\"19\">Tamanho salto - 12 cm<br><br></td>\r\n</tr>\r\n<tr height=\"19\">\r\n<td class=\"xl67\" height=\"19\">Compensação - 3,5 cm<br><br></td>\r\n</tr>\r\n</tbody>\r\n</table>";;1.0;1;Taxable Goods;Catalog, Search;89.90;;;;ZS17P0104002720;;;;ZS17P0104002720.jpg;;ZS17P0104002720.jpg;;ZS17P0104002720.jpg;;;;;;Block after Info Column;;;;;;;;;;;Use config;;manufacturer=Zilian;100;0;1;0;0;1;1;1;1000;1;1;1;1;1;1;1;1;0;0;0;1;0;1;;;;;;;;;;;;;
ZS17P0404002621;zilian;Default;simple;Zilian/Sandálias;base;Sandálias em pele preta;"<table border=\"0\" cellspacing=\"0\" cellpadding=\"0\">\r\n<tbody>\r\n<tr height=\"19\">\r\n<td class=\"xl67\" height=\"19\" width=\"242\">Material exterior - Pele</td>\r\n</tr>\r\n<tr height=\"19\">\r\n<td class=\"xl67\" height=\"19\">Material interior - Poliuretano</td>\r\n</tr>\r\n<tr height=\"19\">\r\n<td class=\"xl67\" height=\"19\"><br><br></td>\r\n</tr>\r\n</tbody>\r\n</table>";;1.0;1;Taxable Goods;Catalog, Search;59.90;;;;ZS17P0404002621;;;;ZS17P0404002621.jpg;;ZS17P0404002621.jpg;;ZS17P0404002621.jpg;;;;;;Block after Info Column;;;;;;;;;;;Use config;;manufacturer=Zilian;100;0;1;0;0;1;1;1;1000;1;1;1;1;1;1;1;1;0;0;0;1;0;1;;;;;;;;;;;;;
ZS17P0404002621;zilian;Default;simple;Zilian/Sandálias;base;Sandálias em pele salmão;"<table border=\"0\" cellspacing=\"0\" cellpadding=\"0\">\r\n<tbody>\r\n<tr height=\"19\">\r\n<td class=\"xl67\" height=\"19\" width=\"242\">Material exterior - Pele</td>\r\n</tr>\r\n<tr height=\"19\">\r\n<td class=\"xl67\" height=\"19\">Material interior - Poliuretano</td>\r\n</tr>\r\n<tr height=\"19\">\r\n<td class=\"xl67\" height=\"19\"></td>\r\n</tr>\r\n</tbody>\r\n</table>\r\n<p><br><br></p>";;1.0;1;Taxable Goods;Catalog, Search;59.90;;;;ZS17P0404002621;;;;ZS17P0404002621.jpg;;ZS17P0404002621.jpg;;ZS17P0404002621.jpg;;;;;;Block after Info Column;;;;;;;;;;;Use config;;manufacturer=Zilian;100;0;1;0;0;1;1;1;1000;1;1;1;1;1;1;1;1;0;0;0;1;0;1;;;;;;;;;;;;;
ZS17P0104002737;zilian;Default;simple;Zilian/Sandálias;base;Sandálias em verniz morango;"<table border=\"0\" cellspacing=\"0\" cellpadding=\"0\">\r\n<tbody>\r\n<tr height=\"19\">\r\n<td class=\"xl67\" height=\"19\" width=\"242\">Material exterior - Verniz</td>\r\n</tr>\r\n<tr height=\"19\">\r\n<td class=\"xl67\" height=\"19\">Material interior - Poliuretano</td>\r\n</tr>\r\n<tr height=\"19\">\r\n<td class=\"xl67\" height=\"19\">Tamanho salto - 7,5 cm<br><br></td>\r\n</tr>\r\n</tbody>\r\n</table>";;1.0;1;Taxable Goods;Catalog, Search;79.90;;;;ZS17P0104002737;;;;ZS17P0104002737.jpg;;ZS17P0104002737.jpg;;ZS17P0104002737.jpg;;;;;;Block after Info Column;;;;;;;;;;;Use config;;manufacturer=Zilian;100;0;1;0;0;1;1;1;1000;1;1;1;1;1;1;1;1;0;0;0;1;0;1;;;;;;;;;;;;;
ZS17P0402002653;zilian;Default;simple;Zilian/Sandálias;base;Sandálias em verniz morango;"<table border=\"0\" cellspacing=\"0\" cellpadding=\"0\">\r\n<tbody>\r\n<tr height=\"19\">\r\n<td class=\"xl67\" height=\"19\" width=\"242\">Material exterior - Verniz</td>\r\n</tr>\r\n<tr height=\"19\">\r\n<td class=\"xl67\" height=\"19\">Material interior - Poliuretano</td>\r\n</tr>\r\n<tr height=\"19\">\r\n<td class=\"xl67\" height=\"19\"><br><br></td>\r\n</tr>\r\n</tbody>\r\n</table>";;1.0;1;Taxable Goods;Catalog, Search;59.90;;;;ZS17P0402002653;;;;ZS17P0402002653.jpg;;ZS17P0402002653.jpg;;ZS17P0402002653.jpg;;;;;;Block after Info Column;;;;;;;;;;;Use config;;manufacturer=Zilian;100;0;1;0;0;1;1;1;1000;1;1;1;1;1;1;1;1;0;0;0;1;0;1;;;;;;;;;;;;;
ZS17P0102002804;zilian;Default;simple;Zilian/Slingback;base;Slingback em pele quebrada salmão;"<table border=\"0\" cellspacing=\"0\" cellpadding=\"0\">\r\n<tbody>\r\n<tr height=\"19\">\r\n<td class=\"xl67\" height=\"19\" width=\"242\">Material exterior - Pele</td>\r\n</tr>\r\n<tr height=\"19\">\r\n<td class=\"xl67\" height=\"19\">Material interior - Pele</td>\r\n</tr>\r\n<tr height=\"19\">\r\n<td class=\"xl67\" height=\"19\">Tamanho salto - 10 cm<br><br></td>\r\n</tr>\r\n</tbody>\r\n</table>";;1.0;1;Taxable Goods;Catalog, Search;89.90;;;;ZS17P0102002804;;;;ZS17P0102002804.jpg;;ZS17P0102002804.jpg;;ZS17P0102002804.jpg;;;;;;Block after Info Column;;;;;;;;;;;Use config;;manufacturer=Zilian;100;0;1;0;0;1;1;1;1000;1;1;1;1;1;1;1;1;0;0;0;1;0;1;;;;;;;;;;;;;
ZS16O0102002381;zilian;Default;simple;Zilian/Sapatos;base;Sapatos em pele beringela;"<table border=\"0\" cellspacing=\"0\" cellpadding=\"0\">\r\n<tbody>\r\n<tr height=\"19\">\r\n<td class=\"xl67\" height=\"19\" width=\"242\">Material exterior - Pele</td>\r\n</tr>\r\n<tr height=\"19\">\r\n<td class=\"xl67\" height=\"19\">Material interior - Pele</td>\r\n</tr>\r\n<tr height=\"19\">\r\n<td class=\"xl67\" height=\"19\">Tamanho salto - 10 cm<br><br></td>\r\n</tr>\r\n</tbody>\r\n</table>";;1.0;1;Taxable Goods;Catalog, Search;89.90;;;;ZS16O0102002381;;;;ZS16O0102002381.jpg;;ZS16O0102002381.jpg;;ZS16O0102002381.jpg;;;;;;Block after Info Column;;;;;;;;;;;Use config;;manufacturer=Zilian;100;0;1;0;0;1;1;1;1000;1;1;1;1;1;1;1;1;0;0;0;1;0;1;;;;;;;;;;;;;
ZS17P0403002777;zilian;Default;simple;Zilian/Ténis;base;Ténis em pele vermelha;"<table border=\"0\" cellspacing=\"0\" cellpadding=\"0\">\r\n<tbody>\r\n<tr height=\"19\">\r\n<td class=\"xl67\" height=\"19\" width=\"242\">Material exterior - Pele</td>\r\n</tr>\r\n<tr height=\"19\">\r\n<td class=\"xl67\" height=\"19\">Material interior - Pele</td>\r\n</tr>\r\n<tr height=\"19\">\r\n<td class=\"xl67\" height=\"19\"><br><br></td>\r\n</tr>\r\n</tbody>\r\n</table>";;1.0;1;Taxable Goods;Catalog, Search;89.90;;;;ZS17P0403002777;;;;ZS17P0403002777.jpg;;ZS17P0403002777.jpg;;ZS17P0403002777.jpg;;;;;;Block after Info Column;;;;;;;;;;;Use config;;manufacturer=Zilian;100;0;1;0;0;1;1;1;1000;1;1;1;1;1;1;1;1;0;0;0;1;0;1;;;;;;;;;;;;;
ZS17P0104002764;zilian;Default;simple;Zilian/Sandálias;base;Sandálias em pele vermelha;"<table border=\"0\" cellspacing=\"0\" cellpadding=\"0\">\r\n<tbody>\r\n<tr height=\"19\">\r\n<td class=\"xl67\" height=\"19\" width=\"242\">Material exterior - Pele</td>\r\n</tr>\r\n<tr height=\"19\">\r\n<td class=\"xl67\" height=\"19\">Material interior - Pele</td>\r\n</tr>\r\n<tr height=\"19\">\r\n<td class=\"xl67\" height=\"19\">Plataforma - 4,5 cm<br><br></td>\r\n</tr>\r\n<tr height=\"19\">\r\n<td class=\"xl67\" height=\"19\">Tacão- 10 cm<br><br></td>\r\n</tr>\r\n</tbody>\r\n</table>";;1.0;1;Taxable Goods;Catalog, Search;89.90;;;;ZS17P0104002764;;;;ZS17P0104002764.jpg;;ZS17P0104002764.jpg;;ZS17P0104002764.jpg;;;;;;Block after Info Column;;;;;;;;;;;Use config;;manufacturer=Zilian;100;0;1;0;0;1;1;1;1000;1;1;1;1;1;1;1;1;0;0;0;1;0;1;;;;;;;;;;;;;
ZS17P0201002769;zilian;Default;simple;Zilian/Sapatos;base;Sapatos em camurça vermelha;"<table border=\"0\" cellspacing=\"0\" cellpadding=\"0\">\r\n<tbody>\r\n<tr height=\"19\">\r\n<td class=\"xl67\" height=\"19\" width=\"242\">Material exterior - Camurça</td>\r\n</tr>\r\n<tr height=\"19\">\r\n<td class=\"xl67\" height=\"19\">Material interior - Pele</td>\r\n</tr>\r\n<tr height=\"19\">\r\n<td class=\"xl67\" height=\"19\">Tamanho salto - 6 cm<br><br></td>\r\n</tr>\r\n</tbody>\r\n</table>";;1.0;1;Taxable Goods;Catalog, Search;89.90;;;;ZS17P0201002769;;;;ZS17P0201002769.jpg;;ZS17P0201002769.jpg;;ZS17P0201002769.jpg;;;;;;Block after Info Column;;;;;;;;;;;Use config;;manufacturer=Zilian;100;0;1;0;0;1;1;1;1000;1;1;1;1;1;1;1;1;0;0;0;1;0;1;;;;;;;;;;;;;
ZS17P0201002745;zilian;Default;simple;Zilian/vz;base;vz vermelho s/mat s/cor;"<table border=\"0\" cellspacing=\"0\" cellpadding=\"0\">\r\n<tbody>\r\n<tr height=\"19\">\r\n<td class=\"xl67\" height=\"19\" width=\"242\">Material exterior - Verniz</td>\r\n</tr>\r\n<tr height=\"19\">\r\n<td class=\"xl67\" height=\"19\">Material interior - Poliuretano</td>\r\n</tr>\r\n<tr height=\"19\">\r\n<td class=\"xl67\" height=\"19\">Tamanho salto - 3 cm<br><br></td>\r\n</tr>\r\n</tbody>\r\n</table>";;1.0;1;Taxable Goods;Catalog, Search;69.90;;;;ZS17P0201002745;;;;ZS17P0201002745.jpg;;ZS17P0201002745.jpg;;ZS17P0201002745.jpg;;;;;;Block after Info Column;;;;;;;;;;;Use config;;manufacturer=Zilian;100;0;1;0;0;1;1;1;1000;1;1;1;1;1;1;1;1;0;0;0;1;0;1;;;;;;;;;;;;;
ZS16C0201002320;zilian;Default;simple;Zilian/Sapatos;base;Sapatos em camurça bordeaux;"<table border=\"0\" cellpadding=\"0\" cellspacing=\"0\">\r\n<tbody>\r\n<tr height=\"19\">\r\n<td class=\"xl67\" height=\"19\">\r\n<p>Material exterior - Camurça</p>\r\n<p>Material interior - Pele</p>\r\n</td>\r\n</tr>\r\n<tr height=\"19\">\r\n<td class=\"xl67\" height=\"19\">\r\n<p>Tamanho salto - 5  cm</p>\r\n<div></div>\r\n</td>\r\n</tr>\r\n</tbody>\r\n</table>";;1.0;1;Taxable Goods;Catalog, Search;79.90;;;;ZS16C0201002320;;;;ZS16C0201002320.jpg;;ZS16C0201002320.jpg;;ZS16C0201002320.jpg;;;;;;Block after Info Column;;;;;;;;;;;Use config;;manufacturer=Zilian;100;0;1;0;0;1;1;1;1000;1;1;1;1;1;1;1;1;0;0;0;1;0;1;;;;;;;;;;;;;
ZS17P0101002753;zilian;Default;simple;Zilian/Sapatos;base;Sapatos em nobuck violeta;"<table border=\"0\" cellspacing=\"0\" cellpadding=\"0\">\r\n<tbody>\r\n<tr height=\"19\">\r\n<td class=\"xl67\" height=\"19\" width=\"242\">Material exterior - Nobuck</td>\r\n</tr>\r\n<tr height=\"19\">\r\n<td class=\"xl67\" height=\"19\">Material interior - Poliuretano</td>\r\n</tr>\r\n<tr height=\"19\">\r\n<td class=\"xl67\" height=\"19\">Tamanho salto - 9 cm<br><br></td>\r\n</tr>\r\n</tbody>\r\n</table>";;1.0;1;Taxable Goods;Catalog, Search;79.90;;;;ZS17P0101002753;;;;ZS17P0101002753.jpg;;ZS17P0101002753.jpg;;ZS17P0101002753.jpg;;;;;;Block after Info Column;;;;;;;;;;;Use config;;manufacturer=Zilian;100;0;1;0;0;1;1;1;1000;1;1;1;1;1;1;1;1;0;0;0;1;0;1;;;;;;;;;;;;;
ZS17P0102002690;zilian;Default;simple;Zilian/Sapatos;base;Sapatos em nobuck violeta;"<table border=\"0\" cellspacing=\"0\" cellpadding=\"0\">\r\n<tbody>\r\n<tr height=\"19\">\r\n<td class=\"xl67\" height=\"19\" width=\"242\">Material exterior - Nobuck</td>\r\n</tr>\r\n<tr height=\"19\">\r\n<td class=\"xl67\" height=\"19\">Material interior - Poliuretano</td>\r\n</tr>\r\n<tr height=\"19\">\r\n<td class=\"xl67\" height=\"19\">Tamanho salto - 7 cm<br><br></td>\r\n</tr>\r\n</tbody>\r\n</table>";;1.0;1;Taxable Goods;Catalog, Search;69.90;;;;ZS17P0102002690;;;;ZS17P0102002690.jpg;;ZS17P0102002690.jpg;;ZS17P0102002690.jpg;;;;;;Block after Info Column;;;;;;;;;;;Use config;;manufacturer=Zilian;100;0;1;0;0;1;1;1;1000;1;1;1;1;1;1;1;1;0;0;0;1;0;1;;;;;;;;;;;;;
ZS16C0101002332;zilian;Default;simple;Zilian/Sapatos;base;Sapatos em camurça bordeaux;"<table border=\"0\" cellpadding=\"0\" cellspacing=\"0\">\r\n<tbody>\r\n<tr height=\"19\">\r\n<td class=\"xl67\" height=\"19\">\r\n<p>Material exterior - Camurça</p>\r\n<p>Material interior - Pele</p>\r\n</td>\r\n</tr>\r\n<tr height=\"19\">\r\n<td class=\"xl67\" height=\"19\">\r\n<p>Tamanho salto - 8  cm</p>\r\n<div></div>\r\n</td>\r\n</tr>\r\n</tbody>\r\n</table>";;1.0;1;Taxable Goods;Catalog, Search;79.90;;;;ZS16C0101002332;;;;ZS16C0101002332.jpg;;ZS16C0101002332.jpg;;ZS16C0101002332.jpg;;;;;;Block after Info Column;;;;;;;;;;;Use config;;manufacturer=Zilian;100;0;1;0;0;1;1;1;1000;1;1;1;1;1;1;1;1;0;0;0;1;0;1;;;;;;;;;;;;;
ZS17P0104002692;zilian;Default;simple;Zilian/Sandálias;base;Sandálias em cetim roxo e marinho;"<table border=\"0\" cellspacing=\"0\" cellpadding=\"0\">\r\n<tbody>\r\n<tr height=\"19\">\r\n<td class=\"xl67\" height=\"19\" width=\"242\">Material exterior - Cetim</td>\r\n</tr>\r\n<tr height=\"19\">\r\n<td class=\"xl67\" height=\"19\">Material interior - Poliuretano</td>\r\n</tr>\r\n<tr height=\"19\">\r\n<td class=\"xl67\" height=\"19\">\r\n<p>Tamanho salto - 12,5 cm<br><br></p>\r\n<p>Compensação- 3 cm</p>\r\n<div></div>\r\n</td>\r\n</tr>\r\n</tbody>\r\n</table>";;1.0;1;Taxable Goods;Catalog, Search;69.90;;;;ZS17P0104002692;;;;ZS17P0104002692.jpg;;ZS17P0104002692.jpg;;ZS17P0104002692.jpg;;;;;;Block after Info Column;;;;;;;;;;;Use config;;manufacturer=Zilian;100;0;1;0;0;1;1;1;1000;1;1;1;1;1;1;1;1;0;0;0;1;0;1;;;;;;;;;;;;;
ZS15C0101001823;zilian;Default;simple;Zilian/Sapatos;base;Sapatos em camurça beringela;"<table border=\"0\" cellpadding=\"0\" cellspacing=\"0\">\r\n<tbody>\r\n<tr height=\"19\">\r\n<td class=\"xl67\" height=\"19\">\r\n<p>Material exterior - Camurça</p>\r\n<p>Material interior - Pele</p>\r\n</td>\r\n</tr>\r\n<tr height=\"19\">\r\n<td class=\"xl67\" height=\"19\">\r\n<p>Tamanho salto - 12  cm</p>\r\n<p>Compensação - 2 cm</p>\r\n<div></div>\r\n</td>\r\n</tr>\r\n</tbody>\r\n</table>";;1.0;1;Taxable Goods;Catalog, Search;89.90;;;;ZS15C0101001823;;;;ZS15C0101001823.jpg;;ZS15C0101001823.jpg;;ZS15C0101001823.jpg;;;;;;Block after Info Column;;;;;;;;;;;Use config;;manufacturer=Zilian;100;0;1;0;0;1;1;1;1000;1;1;1;1;1;1;1;1;0;0;0;1;0;1;;;;;;;;;;;;;
ZS16O0102002381;zilian;Default;simple;Zilian/Sapatos;base;Sapatos em camurça roxo;"<table border=\"0\" cellspacing=\"0\" cellpadding=\"0\">\r\n<tbody>\r\n<tr height=\"19\">\r\n<td class=\"xl67\" height=\"19\" width=\"242\">Material exterior - Camurça</td>\r\n</tr>\r\n<tr height=\"19\">\r\n<td class=\"xl67\" height=\"19\">Material interior - Pele</td>\r\n</tr>\r\n<tr height=\"19\">\r\n<td class=\"xl67\" height=\"19\">Tamanho salto - 10 cm<br><br></td>\r\n</tr>\r\n</tbody>\r\n</table>";;1.0;1;Taxable Goods;Catalog, Search;79.90;;;;ZS16O0102002381;;;;ZS16O0102002381.jpg;;ZS16O0102002381.jpg;;ZS16O0102002381.jpg;;;;;;Block after Info Column;;;;;;;;;;;Use config;;manufacturer=Zilian;100;0;1;0;0;1;1;1;1000;1;1;1;1;1;1;1;1;0;0;0;1;0;1;;;;;;;;;;;;;
ZF17P0104002709;zilian;Default;simple;Zilian/Sandálias;base;Sandálias em nobuck roxo;"<table border=\"0\" cellspacing=\"0\" cellpadding=\"0\">\r\n<tbody>\r\n<tr height=\"19\">\r\n<td class=\"xl67\" height=\"19\" width=\"242\">Material exterior - Nobuck</td>\r\n</tr>\r\n<tr height=\"19\">\r\n<td class=\"xl67\" height=\"19\">Material interior - Poliuretano</td>\r\n</tr>\r\n<tr height=\"19\">\r\n<td class=\"xl67\" height=\"19\">Tamanho salto - 10 cm<br><br></td>\r\n</tr>\r\n</tbody>\r\n</table>";;1.0;1;Taxable Goods;Catalog, Search;79.90;;;;ZF17P0104002709;;;;ZF17P0104002709.jpg;;ZF17P0104002709.jpg;;ZF17P0104002709.jpg;;;;;;Block after Info Column;;;;;;;;;;;Use config;;manufacturer=Zilian;100;0;1;0;0;1;1;1;1000;1;1;1;1;1;1;1;1;0;0;0;1;0;1;;;;;;;;;;;;;
ZS15C0201001879;zilian;Default;simple;Zilian/Sapatos;base;Sapatos em camurça beringela;"<table border=\"0\" cellpadding=\"0\" cellspacing=\"0\">\r\n<tbody>\r\n<tr height=\"19\">\r\n<td class=\"xl67\" height=\"19\">\r\n<p>Material exterior - Camurça</p>\r\n<p>Material interior - Pele</p>\r\n</td>\r\n</tr>\r\n<tr height=\"19\">\r\n<td class=\"xl67\" height=\"19\">\r\n<p>Tamanho salto - 4  cm</p>\r\n<div></div>\r\n</td>\r\n</tr>\r\n</tbody>\r\n</table>\r\n<p><br><br></p>";;1.0;1;Taxable Goods;Catalog, Search;79.90;;;;ZS15C0201001879;;;;ZS15C0201001879.jpg;;ZS15C0201001879.jpg;;ZS15C0201001879.jpg;;;;;;Block after Info Column;;;;;;;;;;;Use config;;manufacturer=Zilian;100;0;1;0;0;1;1;1;1000;1;1;1;1;1;1;1;1;0;0;0;1;0;1;;;;;;;;;;;;;
ZS15C0101001824;zilian;Default;simple;Zilian/Sapatos;base;Sapatos em camurça beringela;"<table border=\"0\" cellspacing=\"0\" cellpadding=\"0\">\r\n<tbody>\r\n<tr height=\"19\">\r\n<td class=\"xl67\" height=\"19\" width=\"242\">Material exterior - Camurça</td>\r\n</tr>\r\n<tr height=\"19\">\r\n<td class=\"xl67\" height=\"19\">Material interior - Pele</td>\r\n</tr>\r\n<tr height=\"19\">\r\n<td class=\"xl67\" height=\"19\">Tamanho salto - 11 cm<br><br></td>\r\n</tr>\r\n</tbody>\r\n</table>";;1.0;1;Taxable Goods;Catalog, Search;89.90;;;;ZS15C0101001824;;;;ZS15C0101001824.jpg;;ZS15C0101001824.jpg;;ZS15C0101001824.jpg;;;;;;Block after Info Column;;;;;;;;;;;Use config;;manufacturer=Zilian;100;0;1;0;0;1;1;1;1000;1;1;1;1;1;1;1;1;0;0;0;1;0;1;;;;;;;;;;;;;
ZS15C0101001824;zilian;Default;simple;Zilian/Sapatos;base;Sapatos em camurça laranja;"<table border=\"0\" cellspacing=\"0\" cellpadding=\"0\">\r\n<tbody>\r\n<tr height=\"19\">\r\n<td class=\"xl67\" height=\"19\" width=\"242\">Material exterior - Camurça</td>\r\n</tr>\r\n<tr height=\"19\">\r\n<td class=\"xl67\" height=\"19\">Material interior - Pele</td>\r\n</tr>\r\n<tr height=\"19\">\r\n<td class=\"xl67\" height=\"19\">Tamanho salto - 11 cm<br><br></td>\r\n</tr>\r\n</tbody>\r\n</table>";;1.0;1;Taxable Goods;Catalog, Search;89.90;;;;ZS15C0101001824;;;;ZS15C0101001824.jpg;;ZS15C0101001824.jpg;;ZS15C0101001824.jpg;;;;;;Block after Info Column;;;;;;;;;;;Use config;;manufacturer=Zilian;100;0;1;0;0;1;1;1;1000;1;1;1;1;1;1;1;1;0;0;0;1;0;1;;;;;;;;;;;;;
ZS17P0401002723;zilian;Default;simple;Zilian/Sapatos;base;Sapatos em pele quebrada toupeira;"<table border=\"0\" cellspacing=\"0\" cellpadding=\"0\">\r\n<tbody>\r\n<tr height=\"19\">\r\n<td class=\"xl67\" height=\"19\" width=\"242\">Material exterior - Pele</td>\r\n</tr>\r\n<tr height=\"19\">\r\n<td class=\"xl67\" height=\"19\">Material interior - Poliuretano</td>\r\n</tr>\r\n<tr height=\"19\">\r\n<td class=\"xl67\" height=\"19\"></td>\r\n</tr>\r\n</tbody>\r\n</table>";;1.0;1;Taxable Goods;Catalog, Search;69.90;;;;ZS17P0401002723;;;;ZS17P0401002723.jpg;;ZS17P0401002723.jpg;;ZS17P0401002723.jpg;;;;;;Block after Info Column;;;;;;;;;;;Use config;;manufacturer=Zilian;100;0;1;0;0;1;1;1;1000;1;1;1;1;1;1;1;1;0;0;0;1;0;1;;;;;;;;;;;;;
ZS15C0101001825;zilian;Default;simple;Zilian/Sapatos;base;Sapatos em camurça laranja;"<table border=\"0\" cellspacing=\"0\" cellpadding=\"0\">\r\n<tbody>\r\n<tr height=\"19\">\r\n<td class=\"xl67\" height=\"19\" width=\"242\">Material exterior - Camurça</td>\r\n</tr>\r\n<tr height=\"19\">\r\n<td class=\"xl67\" height=\"19\">Material interior - Pele</td>\r\n</tr>\r\n<tr height=\"19\">\r\n<td class=\"xl67\" height=\"19\">Tamanho salto - 9 cm<br><br></td>\r\n</tr>\r\n</tbody>\r\n</table>";;1.0;1;Taxable Goods;Catalog, Search;79.90;;;;ZS15C0101001825;;;;ZS15C0101001825.jpg;;ZS15C0101001825.jpg;;ZS15C0101001825.jpg;;;;;;Block after Info Column;;;;;;;;;;;Use config;;manufacturer=Zilian;100;0;1;0;0;1;1;1;1000;1;1;1;1;1;1;1;1;0;0;0;1;0;1;;;;;;;;;;;;;
ZS17P0204002624;zilian;Default;simple;Zilian/Sandálias;base;Sandálias em pele metalizada chumbo;"<table border=\"0\" cellspacing=\"0\" cellpadding=\"0\">\r\n<tbody>\r\n<tr height=\"19\">\r\n<td class=\"xl67\" height=\"19\" width=\"242\">Material exterior - Pele</td>\r\n</tr>\r\n<tr height=\"19\">\r\n<td class=\"xl67\" height=\"19\">Material interior - Poliuretano</td>\r\n</tr>\r\n<tr height=\"19\">\r\n<td class=\"xl67\" height=\"19\">Tamanho salto - 5,5 cm<br><br></td>\r\n</tr>\r\n</tbody>\r\n</table>\r\n<p><br><br><br></p>";;1.0;1;Taxable Goods;Catalog, Search;69.90;;;;ZS17P0204002624;;;;ZS17P0204002624.jpg;;ZS17P0204002624.jpg;;ZS17P0204002624.jpg;;;;;;Block after Info Column;;;;;;;;;;;Use config;;manufacturer=Zilian;100;0;1;0;0;1;1;1;1000;1;1;1;1;1;1;1;1;0;0;0;1;0;1;;;;;;;;;;;;;
ZS17P0201002713;zilian;Default;simple;Zilian/Sapatos;base;Sapatos em cobra toupeira;"<table border=\"0\" cellspacing=\"0\" cellpadding=\"0\">\r\n<tbody>\r\n<tr height=\"19\">\r\n<td class=\"xl67\" height=\"19\" width=\"242\">Material exterior - Pele bovina</td>\r\n</tr>\r\n<tr height=\"19\">\r\n<td class=\"xl67\" height=\"19\">Material interior - Poliuretano</td>\r\n</tr>\r\n<tr height=\"19\">\r\n<td class=\"xl67\" height=\"19\">Tamanho salto - 5 cm<br><br></td>\r\n</tr>\r\n</tbody>\r\n</table>\r\n<p></p>";;1.0;1;Taxable Goods;Catalog, Search;79.90;;;;ZS17P0201002713;;;;ZS17P0201002713.jpg;;ZS17P0201002713.jpg;;ZS17P0201002713.jpg;;;;;;Block after Info Column;;;;;;;;;;;Use config;;manufacturer=Zilian;100;0;1;0;0;1;1;1;1000;1;1;1;1;1;1;1;1;0;0;0;1;0;1;;;;;;;;;;;;;
ZS16C0201002320;zilian;Default;simple;Zilian/Sapatos;base;Sapatos em cobra natural;"<table border=\"0\" cellpadding=\"0\" cellspacing=\"0\">\r\n<tbody>\r\n<tr height=\"19\">\r\n<td class=\"xl67\" height=\"19\">\r\n<p>Material exterior - Pele</p>\r\n<p>Material interior - Pele</p>\r\n</td>\r\n</tr>\r\n<tr height=\"19\">\r\n<td class=\"xl67\" height=\"19\">\r\n<p>Tamanho salto - 5  cm</p>\r\n<div></div>\r\n</td>\r\n</tr>\r\n</tbody>\r\n</table>\r\n<p><br><br></p>";;1.0;1;Taxable Goods;Catalog, Search;89.90;;;;ZS16C0201002320;;;;ZS16C0201002320.jpg;;ZS16C0201002320.jpg;;ZS16C0201002320.jpg;;;;;;Block after Info Column;;;;;;;;;;;Use config;;manufacturer=Zilian;100;0;1;0;0;1;1;1;1000;1;1;1;1;1;1;1;1;0;0;0;1;0;1;;;;;;;;;;;;;
ZS17P0202002712;zilian;Default;simple;Zilian/Sapatos;base;Sapatos em verniz preto;"<table border=\"0\" cellspacing=\"0\" cellpadding=\"0\">\r\n<tbody>\r\n<tr height=\"19\">\r\n<td class=\"xl67\" height=\"19\" width=\"242\">Material exterior - Verniz</td>\r\n</tr>\r\n<tr height=\"19\">\r\n<td class=\"xl67\" height=\"19\">Material interior - Poliuretano</td>\r\n</tr>\r\n<tr height=\"19\">\r\n<td class=\"xl67\" height=\"19\">Tamanho salto - 8 cm<br><br></td>\r\n</tr>\r\n</tbody>\r\n</table>\r\n<p><br><br><br><br></p>";;1.0;1;Taxable Goods;Catalog, Search;79.90;;;;ZS17P0202002712;;;;ZS17P0202002712.jpg;;ZS17P0202002712.jpg;;ZS17P0202002712.jpg;;;;;;Block after Info Column;;;;;;;;;;;Use config;;manufacturer=Zilian;100;0;1;0;0;1;1;1;1000;1;1;1;1;1;1;1;1;0;0;0;1;0;1;;;;;;;;;;;;;
ZS16C0413002333;zilian;Default;simple;Zilian/Sabrinas;base;Sabrinas em camurça toupeira;"<table border=\"0\" cellspacing=\"0\" cellpadding=\"0\">\r\n<tbody>\r\n<tr height=\"19\">\r\n<td class=\"xl67\" height=\"19\" width=\"242\">Material exterior - Camurça</td>\r\n</tr>\r\n<tr height=\"19\">\r\n<td class=\"xl67\" height=\"19\">Material interior - Pele</td>\r\n</tr>\r\n<tr height=\"19\">\r\n<td class=\"xl67\" height=\"19\"><br><br></td>\r\n</tr>\r\n</tbody>\r\n</table>";;1.0;1;Taxable Goods;Catalog, Search;79.90;;;;ZS16C0413002333;;;;ZS16C0413002333.jpg;;ZS16C0413002333.jpg;;ZS16C0413002333.jpg;;;;;;Block after Info Column;;;;;;;;;;;Use config;;manufacturer=Zilian;100;0;1;0;0;1;1;1;1000;1;1;1;1;1;1;1;1;0;0;0;1;0;1;;;;;;;;;;;;;
ZS17P0104002725;zilian;Default;simple;Zilian/Sandálias;base;Sandálias em pele preta;"<table border=\"0\" cellpadding=\"0\" cellspacing=\"0\">\r\n<tbody>\r\n<tr height=\"19\">\r\n<td class=\"xl67\" height=\"19\">\r\n<p>Material exterior - Pele</p>\r\n<p>Material interior - Poliuretano</p>\r\n</td>\r\n</tr>\r\n<tr height=\"19\">\r\n<td class=\"xl67\" height=\"19\">\r\n<p>Tamanho salto - 9  cm</p>\r\n<div></div>\r\n</td>\r\n</tr>\r\n</tbody>\r\n</table>";;1.0;1;Taxable Goods;Catalog, Search;99.90;;;;ZS17P0104002725;;;;ZS17P0104002725.jpg;;ZS17P0104002725.jpg;;ZS17P0104002725.jpg;;;;;;Block after Info Column;;;;;;;;;;;Use config;;manufacturer=Zilian;100;0;1;0;0;1;1;1;1000;1;1;1;1;1;1;1;1;0;0;0;1;0;1;;;;;;;;;;;;;
ZS17P0104002718;zilian;Default;simple;Zilian/Sandálias;base;Sandálias em nobuck preto;"<table border=\"0\" cellspacing=\"0\" cellpadding=\"0\">\r\n<tbody>\r\n<tr height=\"19\">\r\n<td class=\"xl67\" height=\"19\" width=\"242\">Material exterior - Nobuck</td>\r\n</tr>\r\n<tr height=\"19\">\r\n<td class=\"xl67\" height=\"19\">Material interior - Poliuretano</td>\r\n</tr>\r\n<tr height=\"19\">\r\n<td class=\"xl67\" height=\"19\">Tamanho salto - 10 cm<br><br></td>\r\n</tr>\r\n</tbody>\r\n</table>";;1.0;1;Taxable Goods;Catalog, Search;129.90;;;;ZS17P0104002718;;;;ZS17P0104002718.jpg;;ZS17P0104002718.jpg;;ZS17P0104002718.jpg;;;;;;Block after Info Column;;;;;;;;;;;Use config;;manufacturer=Zilian;100;0;1;0;0;1;1;1;1000;1;1;1;1;1;1;1;1;0;0;0;1;0;1;;;;;;;;;;;;;
ZS17P0104002727;zilian;Default;simple;Zilian/Sandálias;base;Sandálias em nobuck preto;"<table border=\"0\" cellspacing=\"0\" cellpadding=\"0\">\r\n<tbody>\r\n<tr height=\"19\">\r\n<td class=\"xl67\" height=\"19\" width=\"242\">Material exterior - Nobuck</td>\r\n</tr>\r\n<tr height=\"19\">\r\n<td class=\"xl67\" height=\"19\">Material interior - Poliuretano</td>\r\n</tr>\r\n<tr height=\"19\">\r\n<td class=\"xl67\" height=\"19\">Tamanho salto - 8 cm<br><br></td>\r\n</tr>\r\n</tbody>\r\n</table>";;1.0;1;Taxable Goods;Catalog, Search;99.90;;;;ZS17P0104002727;;;;ZS17P0104002727.jpg;;ZS17P0104002727.jpg;;ZS17P0104002727.jpg;;;;;;Block after Info Column;;;;;;;;;;;Use config;;manufacturer=Zilian;100;0;1;0;0;1;1;1;1000;1;1;1;1;1;1;1;1;0;0;0;1;0;1;;;;;;;;;;;;;
ZS17P0102002768;zilian;Default;simple;Zilian/Mules;base;Mules em camurça preta;"<table border=\"0\" cellspacing=\"0\" cellpadding=\"0\">\r\n<tbody>\r\n<tr height=\"19\">\r\n<td class=\"xl67\" height=\"19\" width=\"242\">Material exterior - Camurça</td>\r\n</tr>\r\n<tr height=\"19\">\r\n<td class=\"xl67\" height=\"19\">Material interior - Pele</td>\r\n</tr>\r\n<tr height=\"19\">\r\n<td class=\"xl67\" height=\"19\">Tamanho salto - 10 cm</td>\r\n</tr>\r\n</tbody>\r\n</table>";;1.0;1;Taxable Goods;Catalog, Search;79.90;;;;ZS17P0102002768;;;;ZS17P0102002768.jpg;;ZS17P0102002768.jpg;;ZS17P0102002768.jpg;;;;;;Block after Info Column;;;;;;;;;;;Use config;;manufacturer=Zilian;100;0;1;0;0;1;1;1;1000;1;1;1;1;1;1;1;1;0;0;0;1;0;1;;;;;;;;;;;;;
ZS16C0101002319;zilian;Default;simple;Zilian/Sapatos;base;Sapatos em pele preta;"<table border=\"0\" cellpadding=\"0\" cellspacing=\"0\">\r\n<tbody>\r\n<tr height=\"19\">\r\n<td class=\"xl67\" height=\"19\">\r\n<p>Material exterior - Pele</p>\r\n<p>Material interior - Pele</p>\r\n</td>\r\n</tr>\r\n<tr height=\"19\">\r\n<td class=\"xl67\" height=\"19\">\r\n<p>Tamanho salto - 9  cm</p>\r\n<div></div>\r\n</td>\r\n</tr>\r\n</tbody>\r\n</table>";;1.0;1;Taxable Goods;Catalog, Search;79.90;;;;ZS16C0101002319;;;;ZS16C0101002319.jpg;;ZS16C0101002319.jpg;;ZS16C0101002319.jpg;;;;;;Block after Info Column;;;;;;;;;;;Use config;;manufacturer=Zilian;100;0;1;0;0;1;1;1;1000;1;1;1;1;1;1;1;1;0;0;0;1;0;1;;;;;;;;;;;;;
ZS16C0101002332;zilian;Default;simple;Zilian/Sapatos;base;Sapatos em camurça preta;"<table border=\"0\" cellspacing=\"0\" cellpadding=\"0\">\r\n<tbody>\r\n<tr height=\"19\">\r\n<td class=\"xl67\" height=\"19\" width=\"242\">Material exterior - Camurça</td>\r\n</tr>\r\n<tr height=\"19\">\r\n<td class=\"xl67\" height=\"19\">Material interior - Pele</td>\r\n</tr>\r\n<tr height=\"19\">\r\n<td class=\"xl67\" height=\"19\">Tamanho salto - 8 cm<br><br></td>\r\n</tr>\r\n</tbody>\r\n</table>";;1.0;1;Taxable Goods;Catalog, Search;79.90;;;;ZS16C0101002332;;;;ZS16C0101002332.jpg;;ZS16C0101002332.jpg;;ZS16C0101002332.jpg;;;;;;Block after Info Column;;;;;;;;;;;Use config;;manufacturer=Zilian;100;0;1;0;0;1;1;1;1000;1;1;1;1;1;1;1;1;0;0;0;1;0;1;;;;;;;;;;;;;
ZS17P0101002805;zilian;Default;simple;Zilian/Sapatos;base;Sapatos em camurça rosa seco;"<table border=\"0\" cellspacing=\"0\" cellpadding=\"0\">\r\n<tbody>\r\n<tr height=\"19\">\r\n<td class=\"xl67\" height=\"19\" width=\"242\">Material exterior - Pele</td>\r\n</tr>\r\n<tr height=\"19\">\r\n<td class=\"xl67\" height=\"19\">Material interior - Pele</td>\r\n</tr>\r\n<tr height=\"19\">\r\n<td class=\"xl67\" height=\"19\">Tamanho salto - 10 cm<br><br></td>\r\n</tr>\r\n</tbody>\r\n</table>";;1.0;1;Taxable Goods;Catalog, Search;99.90;;;;ZS17P0101002805;;;;ZS17P0101002805.jpg;;ZS17P0101002805.jpg;;ZS17P0101002805.jpg;;;;;;Block after Info Column;;;;;;;;;;;Use config;;manufacturer=Zilian;100;0;1;0;0;1;1;1;1000;1;1;1;1;1;1;1;1;0;0;0;1;0;1;;;;;;;;;;;;;
ZS16C0101002332;zilian;Default;simple;Zilian/Sapatos;base;Sapatos em cobra natural;"<table border=\"0\" cellspacing=\"0\" cellpadding=\"0\">\r\n<tbody>\r\n<tr height=\"19\">\r\n<td class=\"xl67\" height=\"19\" width=\"242\">Material exterior - Pele bovina gravada</td>\r\n</tr>\r\n<tr height=\"19\">\r\n<td class=\"xl67\" height=\"19\">Material interior - Pele</td>\r\n</tr>\r\n<tr height=\"19\">\r\n<td class=\"xl67\" height=\"19\">Tamanho salto - 8 cm<br><br></td>\r\n</tr>\r\n</tbody>\r\n</table>";;1.0;1;Taxable Goods;Catalog, Search;89.90;;;;ZS16C0101002332;;;;ZS16C0101002332.jpg;;ZS16C0101002332.jpg;;ZS16C0101002332.jpg;;;;;;Block after Info Column;;;;;;;;;;;Use config;;manufacturer=Zilian;100;0;1;0;0;1;1;1;1000;1;1;1;1;1;1;1;1;0;0;0;1;0;1;;;;;;;;;;;;;
ZS16C0101002319;zilian;Default;simple;Zilian/Sapatos;base;Sapatos em camurça rosa seco;"<table border=\"0\" cellpadding=\"0\" cellspacing=\"0\">\r\n<tbody>\r\n<tr height=\"19\">\r\n<td class=\"xl67\" height=\"19\">\r\n<p>Material exterior - Camurça</p>\r\n<p>Material interior - Pele</p>\r\n</td>\r\n</tr>\r\n<tr height=\"19\">\r\n<td class=\"xl67\" height=\"19\">\r\n<p>Tamanho salto - 9  cm</p>\r\n<div></div>\r\n</td>\r\n</tr>\r\n</tbody>\r\n</table>";;1.0;1;Taxable Goods;Catalog, Search;79.90;;;;ZS16C0101002319;;;;ZS16C0101002319.jpg;;ZS16C0101002319.jpg;;ZS16C0101002319.jpg;;;;;;Block after Info Column;;;;;;;;;;;Use config;;manufacturer=Zilian;100;0;1;0;0;1;1;1;1000;1;1;1;1;1;1;1;1;0;0;0;1;0;1;;;;;;;;;;;;;
ZS17P0102002703;zilian;Default;simple;Zilian/SlingBack;base;SlingBack em pele make up;"<table border=\"0\" cellspacing=\"0\" cellpadding=\"0\">\r\n<tbody>\r\n<tr height=\"19\">\r\n<td class=\"xl67\" height=\"19\" width=\"242\">Material exterior - Pele</td>\r\n</tr>\r\n<tr height=\"19\">\r\n<td class=\"xl67\" height=\"19\">Material interior - Poliuretano</td>\r\n</tr>\r\n<tr height=\"19\">\r\n<td class=\"xl67\" height=\"19\">Tamanho salto - 8 cm<br><br></td>\r\n</tr>\r\n</tbody>\r\n</table>";;1.0;1;Taxable Goods;Catalog, Search;69.90;;;;ZS17P0102002703;;;;ZS17P0102002703.jpg;;ZS17P0102002703.jpg;;ZS17P0102002703.jpg;;;;;;Block after Info Column;;;;;;;;;;;Use config;;manufacturer=Zilian;100;0;1;0;0;1;1;1;1000;1;1;1;1;1;1;1;1;0;0;0;1;0;1;;;;;;;;;;;;;
ZS16C0201002320;zilian;Default;simple;Zilian/Sapatos;base;Sapatos em camurça rosa seco;"<table border=\"0\" cellpadding=\"0\" cellspacing=\"0\">\r\n<tbody>\r\n<tr height=\"19\">\r\n<td class=\"xl67\" height=\"19\">\r\n<p>Material exterior - Camurça</p>\r\n<p>Material interior - Pele</p>\r\n</td>\r\n</tr>\r\n<tr height=\"19\">\r\n<td class=\"xl67\" height=\"19\">\r\n<p>Tamanho salto - 5  cm</p>\r\n<div></div>\r\n</td>\r\n</tr>\r\n</tbody>\r\n</table>";;1.0;1;Taxable Goods;Catalog, Search;79.90;;;;ZS16C0201002320;;;;ZS16C0201002320.jpg;;ZS16C0201002320.jpg;;ZS16C0201002320.jpg;;;;;;Block after Info Column;;;;;;;;;;;Use config;;manufacturer=Zilian;100;0;1;0;0;1;1;1;1000;1;1;1;1;1;1;1;1;0;0;0;1;0;1;;;;;;;;;;;;;
ZS17P0104002674;zilian;Default;simple;Zilian/Mules;base;Mules em nobuck blush;"<table border=\"0\" cellspacing=\"0\" cellpadding=\"0\">\r\n<tbody>\r\n<tr height=\"19\">\r\n<td class=\"xl67\" height=\"19\" width=\"242\">Material exterior - Nobuck</td>\r\n</tr>\r\n<tr height=\"19\">\r\n<td class=\"xl67\" height=\"19\">Material interior - Poliuretano</td>\r\n</tr>\r\n<tr height=\"19\">\r\n<td class=\"xl67\" height=\"19\">Tamanho salto - 7,5 cm</td>\r\n</tr>\r\n<tr height=\"19\">\r\n<td class=\"xl67\" height=\"19\"><br><br></td>\r\n</tr>\r\n</tbody>\r\n</table>";;1.0;1;Taxable Goods;Catalog, Search;69.90;;;;ZS17P0104002674;;;;ZS17P0104002674.jpg;;ZS17P0104002674.jpg;;ZS17P0104002674.jpg;;;;;;Block after Info Column;;;;;;;;;;;Use config;;manufacturer=Zilian;100;0;1;0;0;1;1;1;1000;1;1;1;1;1;1;1;1;0;0;0;1;0;1;;;;;;;;;;;;;
ZS17P0201002600;zilian;Default;simple;Zilian/Sapatos;base;Sapatos em croute rosa seco;"<table border=\"0\" cellspacing=\"0\" cellpadding=\"0\">\r\n<tbody>\r\n<tr height=\"19\">\r\n<td class=\"xl67\" height=\"19\" width=\"242\">Material exterior - Camurça</td>\r\n</tr>\r\n<tr height=\"19\">\r\n<td class=\"xl67\" height=\"19\">Material interior - Pele</td>\r\n</tr>\r\n<tr height=\"19\">\r\n<td class=\"xl67\" height=\"19\">Tamanho salto - 5,5 cm<br><br></td>\r\n</tr>\r\n</tbody>\r\n</table>";;1.0;1;Taxable Goods;Catalog, Search;89.90;;;;ZS17P0201002600;;;;ZS17P0201002600.jpg;;ZS17P0201002600.jpg;;ZS17P0201002600.jpg;;;;;;Block after Info Column;;;;;;;;;;;Use config;;manufacturer=Zilian;100;0;1;0;0;1;1;1;1000;1;1;1;1;1;1;1;1;0;0;0;1;0;1;;;;;;;;;;;;;
ZS17P0201002747;zilian;Default;simple;Zilian/Sapatos;base;Sapatos em verniz blush;"<table border=\"0\" cellspacing=\"0\" cellpadding=\"0\">\r\n<tbody>\r\n<tr height=\"19\">\r\n<td class=\"xl67\" height=\"19\" width=\"242\">Material exterior - Verniz</td>\r\n</tr>\r\n<tr height=\"19\">\r\n<td class=\"xl67\" height=\"19\">Material interior - Poliuretano</td>\r\n</tr>\r\n<tr height=\"19\">\r\n<td class=\"xl67\" height=\"19\">Tamanho salto - 5 cm<br><br></td>\r\n</tr>\r\n</tbody>\r\n</table>";;1.0;1;Taxable Goods;Catalog, Search;79.90;;;;ZS17P0201002747;;;;ZS17P0201002747.jpg;;ZS17P0201002747.jpg;;ZS17P0201002747.jpg;;;;;;Block after Info Column;;;;;;;;;;;Use config;;manufacturer=Zilian;100;0;1;0;0;1;1;1;1000;1;1;1;1;1;1;1;1;0;0;0;1;0;1;;;;;;;;;;;;;
ZS17P0104002808;zilian;Default;simple;Zilian/Sandálias;base;Sandálias em camurça e pele blush;"<table border=\"0\" cellspacing=\"0\" cellpadding=\"0\">\r\n<tbody>\r\n<tr height=\"19\">\r\n<td class=\"xl67\" height=\"19\" width=\"242\">Material exterior - Pele e Camurça</td>\r\n</tr>\r\n<tr height=\"19\">\r\n<td class=\"xl67\" height=\"19\">Material interior - Poliuretano</td>\r\n</tr>\r\n<tr height=\"19\">\r\n<td class=\"xl67\" height=\"19\">\r\n<p>Tamanho salto - 10,5 cm<br><br></p>\r\n<p>Compensação - 2 cm</p>\r\n</td>\r\n</tr>\r\n</tbody>\r\n</table>";;1.0;1;Taxable Goods;Catalog, Search;99.90;;;;ZS17P0104002808;;;;ZS17P0104002808.jpg;;ZS17P0104002808.jpg;;ZS17P0104002808.jpg;;;;;;Block after Info Column;;;;;;;;;;;Use config;;manufacturer=Zilian;100;0;1;0;0;1;1;1;1000;1;1;1;1;1;1;1;1;0;0;0;1;0;1;;;;;;;;;;;;;
ZS17P0104002730;zilian;Default;simple;Zilian/Sandálias;base;Sandálias em pele quebrada blush;"<table border=\"0\" cellspacing=\"0\" cellpadding=\"0\">\r\n<tbody>\r\n<tr height=\"19\">\r\n<td class=\"xl67\" height=\"19\" width=\"242\">Material exterior - Pele</td>\r\n</tr>\r\n<tr height=\"19\">\r\n<td class=\"xl67\" height=\"19\">Material interior - Poliuretano</td>\r\n</tr>\r\n<tr height=\"19\">\r\n<td class=\"xl67\" height=\"19\">Plataforma - 3,5 cm<br><br></td>\r\n</tr>\r\n<tr height=\"19\">\r\n<td class=\"xl67\" height=\"19\">Tacão- 10 cm<br><br></td>\r\n</tr>\r\n</tbody>\r\n</table>";;1.0;1;Taxable Goods;Catalog, Search;99.90;;;;ZS17P0104002730;;;;ZS17P0104002730.jpg;;ZS17P0104002730.jpg;;ZS17P0104002730.jpg;;;;;;Block after Info Column;;;;;;;;;;;Use config;;manufacturer=Zilian;100;0;1;0;0;1;1;1;1000;1;1;1;1;1;1;1;1;0;0;0;1;0;1;;;;;;;;;;;;;
ZS17P0104002719;zilian;Default;simple;Zilian/Sandálias;base;Sandálias em pele blush;"<table border=\"0\" cellspacing=\"0\" cellpadding=\"0\">\r\n<tbody>\r\n<tr height=\"19\">\r\n<td class=\"xl67\" height=\"19\" width=\"242\">Material exterior - Pele </td>\r\n</tr>\r\n<tr height=\"19\">\r\n<td class=\"xl67\" height=\"19\">Material interior - Poliuretano</td>\r\n</tr>\r\n<tr height=\"19\">\r\n<td class=\"xl67\" height=\"19\">Tamanho salto - 12 cm</td>\r\n</tr>\r\n<tr height=\"19\">\r\n<td class=\"xl67\" height=\"19\">Compensação - 2,5 cm<br><br></td>\r\n</tr>\r\n</tbody>\r\n</table>";;1.0;1;Taxable Goods;Catalog, Search;99.90;;;;ZS17P0104002719;;;;ZS17P0104002719.jpg;;ZS17P0104002719.jpg;;ZS17P0104002719.jpg;;;;;;Block after Info Column;;;;;;;;;;;Use config;;manufacturer=Zilian;100;0;1;0;0;1;1;1;1000;1;1;1;1;1;1;1;1;0;0;0;1;0;1;;;;;;;;;;;;;
ZS17P0102002704;zilian;Default;simple;Zilian/Sapatos;base;Sapatos em pele gravada off white;"<table border=\"0\" cellspacing=\"0\" cellpadding=\"0\">\r\n<tbody>\r\n<tr height=\"19\">\r\n<td class=\"xl67\" height=\"19\" width=\"242\">Material exterior - Pele</td>\r\n</tr>\r\n<tr height=\"19\">\r\n<td class=\"xl67\" height=\"19\">Material interior - Poliuretano</td>\r\n</tr>\r\n<tr height=\"19\">\r\n<td class=\"xl67\" height=\"19\">Tamanho salto - 12 cm<br><br></td>\r\n</tr>\r\n<tr height=\"19\">\r\n<td class=\"xl67\" height=\"19\">Compensação - 2,5 cm<br><br></td>\r\n</tr>\r\n</tbody>\r\n</table>";;1.0;1;Taxable Goods;Catalog, Search;69.90;;;;ZS17P0102002704;;;;ZS17P0102002704.jpg;;ZS17P0102002704.jpg;;ZS17P0102002704.jpg;;;;;;Block after Info Column;;;;;;;;;;;Use config;;manufacturer=Zilian;100;0;1;0;0;1;1;1;1000;1;1;1;1;1;1;1;1;0;0;0;1;0;1;;;;;;;;;;;;;
ZS17P0404002630;zilian;Default;simple;Zilian/Sandálias;base;Sandálias em pele metalizada dourada;"<table border=\"0\" cellspacing=\"0\" cellpadding=\"0\">\r\n<tbody>\r\n<tr height=\"19\">\r\n<td class=\"xl67\" height=\"19\" width=\"242\">Material exterior - Pele metalizada</td>\r\n</tr>\r\n<tr height=\"19\">\r\n<td class=\"xl67\" height=\"19\">Material interior - Poliuretano</td>\r\n</tr>\r\n<tr height=\"19\">\r\n<td class=\"xl67\" height=\"19\"><br><br></td>\r\n</tr>\r\n</tbody>\r\n</table>";;1.0;1;Taxable Goods;Catalog, Search;79.90;;;;ZS17P0404002630;;;;ZS17P0404002630.jpg;;ZS17P0404002630.jpg;;ZS17P0404002630.jpg;;;;;;Block after Info Column;;;;;;;;;;;Use config;;manufacturer=Zilian;100;0;1;0;0;1;1;1;1000;1;1;1;1;1;1;1;1;0;0;0;1;0;1;;;;;;;;;;;;;
ZS17P0204002643;zilian;Default;simple;Zilian/Sandálias;base;Sandálias em pele metalizada dourada;"<table border=\"0\" cellspacing=\"0\" cellpadding=\"0\">\r\n<tbody>\r\n<tr height=\"19\">\r\n<td class=\"xl67\" height=\"19\" width=\"242\">Material exterior - Pele</td>\r\n</tr>\r\n<tr height=\"19\">\r\n<td class=\"xl67\" height=\"19\">Material interior - Poliuretano</td>\r\n</tr>\r\n<tr height=\"19\">\r\n<td class=\"xl67\" height=\"19\">Tamanho salto - 5 cm<br><br></td>\r\n</tr>\r\n</tbody>\r\n</table>";;1.0;1;Taxable Goods;Catalog, Search;69.90;;;;ZS17P0204002643;;;;ZS17P0204002643.jpg;;ZS17P0204002643.jpg;;ZS17P0204002643.jpg;;;;;;Block after Info Column;;;;;;;;;;;Use config;;manufacturer=Zilian;100;0;1;0;0;1;1;1;1000;1;1;1;1;1;1;1;1;0;0;0;1;0;1;;;;;;;;;;;;;
ZS17P0204002624;zilian;Default;simple;Zilian/Sandálias;base;Sandálias em pele metalizada dourada;"<table border=\"0\" cellspacing=\"0\" cellpadding=\"0\">\r\n<tbody>\r\n<tr height=\"19\">\r\n<td class=\"xl67\" height=\"19\" width=\"242\">Material exterior - Pele</td>\r\n</tr>\r\n<tr height=\"19\">\r\n<td class=\"xl67\" height=\"19\">Material interior - Poliuretano</td>\r\n</tr>\r\n<tr height=\"19\">\r\n<td class=\"xl67\" height=\"19\">Tamanho salto - 5,5 cm<br><br></td>\r\n</tr>\r\n</tbody>\r\n</table>\r\n<p><br><br><br><br></p>";;1.0;1;Taxable Goods;Catalog, Search;69.90;;;;ZS17P0204002624;;;;ZS17P0204002624.jpg;;ZS17P0204002624.jpg;;ZS17P0204002624.jpg;;;;;;Block after Info Column;;;;;;;;;;;Use config;;manufacturer=Zilian;100;0;1;0;0;1;1;1;1000;1;1;1;1;1;1;1;1;0;0;0;1;0;1;;;;;;;;;;;;;
ZS17P0201002810;zilian;Default;simple;Zilian/Sabrinas;base;Sabrinas em pele metalizada ocre;"<table border=\"0\" cellspacing=\"0\" cellpadding=\"0\">\r\n<tbody>\r\n<tr height=\"19\">\r\n<td class=\"xl67\" height=\"19\" width=\"242\">Material exterior - Pele</td>\r\n</tr>\r\n<tr height=\"19\">\r\n<td class=\"xl67\" height=\"19\">Material interior - Pele</td>\r\n</tr>\r\n<tr height=\"19\">\r\n<td class=\"xl67\" height=\"19\">Tamanho salto - 4 cm<br><br></td>\r\n</tr>\r\n</tbody>\r\n</table>";;1.0;1;Taxable Goods;Catalog, Search;79.90;;;;ZS17P0201002810;;;;ZS17P0201002810.jpg;;ZS17P0201002810.jpg;;ZS17P0201002810.jpg;;;;;;Block after Info Column;;;;;;;;;;;Use config;;manufacturer=Zilian;100;0;1;0;0;1;1;1;1000;1;1;1;1;1;1;1;1;0;0;0;1;0;1;;;;;;;;;;;;;
ZS17P0104002752;zilian;Default;simple;Zilian/Sandálias;base;Sandálias em pele metalizada rose gold;"<table border=\"0\" cellspacing=\"0\" cellpadding=\"0\">\r\n<tbody>\r\n<tr height=\"19\">\r\n<td class=\"xl67\" height=\"19\" width=\"242\">Material exterior - Pele</td>\r\n</tr>\r\n<tr height=\"19\">\r\n<td class=\"xl67\" height=\"19\">Material interior - Poliuretano</td>\r\n</tr>\r\n<tr height=\"19\">\r\n<td class=\"xl67\" height=\"19\">Tamanho salto - 8,5 cm<br><br></td>\r\n</tr>\r\n</tbody>\r\n</table>";;1.0;1;Taxable Goods;Catalog, Search;79.90;;;;ZS17P0104002752;;;;ZS17P0104002752.jpg;;ZS17P0104002752.jpg;;ZS17P0104002752.jpg;;;;;;Block after Info Column;;;;;;;;;;;Use config;;manufacturer=Zilian;100;0;1;0;0;1;1;1;1000;1;1;1;1;1;1;1;1;0;0;0;1;0;1;;;;;;;;;;;;;
ZS17P0102002806;zilian;Default;simple;Zilian/Sapatos;base;Sapatos em pele metalizada dourada;"<table border=\"0\" cellspacing=\"0\" cellpadding=\"0\">\r\n<tbody>\r\n<tr height=\"19\">\r\n<td class=\"xl67\" height=\"19\" width=\"242\">Material exterior - Pele</td>\r\n</tr>\r\n<tr height=\"19\">\r\n<td class=\"xl67\" height=\"19\">Material interior - Pele</td>\r\n</tr>\r\n<tr height=\"19\">\r\n<td class=\"xl67\" height=\"19\">Tamanho salto - 9 cm<br><br></td>\r\n</tr>\r\n</tbody>\r\n</table>";;1.0;1;Taxable Goods;Catalog, Search;99.90;;;;ZS17P0102002806;;;;ZS17P0102002806.jpg;;ZS17P0102002806.jpg;;ZS17P0102002806.jpg;;;;;;Block after Info Column;;;;;;;;;;;Use config;;manufacturer=Zilian;100;0;1;0;0;1;1;1;1000;1;1;1;1;1;1;1;1;0;0;0;1;0;1;;;;;;;;;;;;;
